"Source:","/media/zhicai/store/OneDrive/silicon/rtx_git/metarock_scc/metarock.kicad_sch"
"Date:","Fri 08 Dec 2023 12:06:13 AM PST"
"Tool:","Eeschema 6.0.11-2627ca5db0~126~ubuntu20.04.1"
"Generator:","/usr/share/kicad/plugins/bom_csv_grouped_by_value.py"
"Component Count:","203"

"Individual Components:"

"Item","Qty","Reference(s)","Value","LibPart","Footprint","Datasheet"
"","","C1","C","Device:C","Capacitor_SMD:C_0805_2012Metric","~"
"","","C2","C","Device:C","Capacitor_SMD:C_0805_2012Metric","~"
"","","C3","1nF","Device:C","Capacitor_SMD:C_0805_2012Metric","~"
"","","C4","C","Device:C","Capacitor_SMD:C_0805_2012Metric","~"
"","","C5","1nF","Device:C","Capacitor_SMD:C_0805_2012Metric","~"
"","","C6","C","Device:C","Capacitor_SMD:C_0805_2012Metric","~"
"","","C7","1nF","Device:C","Capacitor_SMD:C_0805_2012Metric","~"
"","","C8","C","Device:C","Capacitor_SMD:C_0805_2012Metric","~"
"","","C9","1nF","Device:C","Capacitor_SMD:C_0805_2012Metric","~"
"","","C10","C","Device:C","Capacitor_SMD:C_0805_2012Metric","~"
"","","C11","C","Device:C","Capacitor_SMD:C_0805_2012Metric","~"
"","","C12","C","Device:C","Capacitor_SMD:C_0805_2012Metric","~"
"","","C13","C","Device:C","Capacitor_SMD:C_0805_2012Metric","~"
"","","C14","C","Device:C","Capacitor_SMD:C_0805_2012Metric","~"
"","","C15","0.1uF","Device:C","Capacitor_SMD:C_0805_2012Metric","~"
"","","C16","0.1uF","Device:C","Capacitor_SMD:C_0805_2012Metric","~"
"","","C17","0.1uF","Device:C","Capacitor_SMD:C_0805_2012Metric","~"
"","","C18","0.1uF","Device:C","Capacitor_SMD:C_0805_2012Metric","~"
"","","C19","0.1uF","Device:C","Capacitor_SMD:C_0805_2012Metric","~"
"","","C20","0.1uF","Device:C","Capacitor_SMD:C_0805_2012Metric","~"
"","","C21","0.1uF","Device:C","Capacitor_SMD:C_0805_2012Metric","~"
"","","C22","0.1uF","Device:C","Capacitor_SMD:C_0805_2012Metric","~"
"","","C23","1uF","Device:C","Capacitor_SMD:C_0805_2012Metric","~"
"","","C24","10uF","Device:C","Capacitor_SMD:C_0805_2012Metric","~"
"","","C25","0.1uF","Device:C","Capacitor_SMD:C_0805_2012Metric","~"
"","","C26","1uF","Device:C","Capacitor_SMD:C_0805_2012Metric","~"
"","","C27","10nF","Device:C","Capacitor_SMD:C_0805_2012Metric","~"
"","","C28","0.1uF","Device:C","Capacitor_SMD:C_0805_2012Metric","~"
"","","C29","10uF","Device:C","Capacitor_SMD:C_0805_2012Metric","~"
"","","C30","1uF","Device:C","Capacitor_SMD:C_0805_2012Metric","~"
"","","C31","0.1uF","Device:C","Capacitor_SMD:C_0805_2012Metric","~"
"","","C32","10uF","Device:C","Capacitor_SMD:C_0805_2012Metric","~"
"","","C33","10uF","Device:C","Capacitor_SMD:C_0805_2012Metric","~"
"","","C34","0.1uF","Device:C","Capacitor_SMD:C_0805_2012Metric","~"
"","","C35","22pF","Device:C","Capacitor_SMD:C_0805_2012Metric","~"
"","","C36","22pF","Device:C","Capacitor_SMD:C_0805_2012Metric","~"
"","","C37","4.7nF","Device:C","Capacitor_SMD:C_0805_2012Metric","~"
"","","C38","68pF","Device:C","Capacitor_SMD:C_0805_2012Metric","~"
"","","C39","1nF","Device:C","Capacitor_SMD:C_0805_2012Metric","~"
"","","C40","C","Device:C","Capacitor_SMD:C_0805_2012Metric","~"
"","","C41","1nF","Device:C","Capacitor_SMD:C_0805_2012Metric","~"
"","","C42","1nF","Device:C","Capacitor_SMD:C_0805_2012Metric","~"
"","","C43","1nF","Device:C","Capacitor_SMD:C_0805_2012Metric","~"
"","","C44","1nF","Device:C","Capacitor_SMD:C_0805_2012Metric","~"
"","","C45","1nF","Device:C","Capacitor_SMD:C_0805_2012Metric","~"
"","","C46","1nF","Device:C","Capacitor_SMD:C_0805_2012Metric","~"
"","","C47","1nF","Device:C","Capacitor_SMD:C_0805_2012Metric","~"
"","","C48","1nF","Device:C","Capacitor_SMD:C_0805_2012Metric","~"
"","","C49","C","Device:C","Capacitor_SMD:C_0805_2012Metric","~"
"","","C50","C","Device:C","Capacitor_SMD:C_0805_2012Metric","~"
"","","C51","C","Device:C","Capacitor_SMD:C_0805_2012Metric","~"
"","","C52","C","Device:C","Capacitor_SMD:C_0805_2012Metric","~"
"","","C53","C","Device:C","Capacitor_SMD:C_0805_2012Metric","~"
"","","C54","C","Device:C","Capacitor_SMD:C_0805_2012Metric","~"
"","","C55","C","Device:C","Capacitor_SMD:C_0805_2012Metric","~"
"","","C56","C","Device:C","Capacitor_SMD:C_0805_2012Metric","~"
"","","C57","C","Device:C","Capacitor_SMD:C_0805_2012Metric","~"
"","","C58","C","Device:C","Capacitor_SMD:C_0805_2012Metric","~"
"","","C59","C","Device:C","Capacitor_SMD:C_0805_2012Metric","~"
"","","C60","C","Device:C","Capacitor_SMD:C_0805_2012Metric","~"
"","","C61","C","Device:C","Capacitor_SMD:C_0805_2012Metric","~"
"","","C62","1nF","Device:C","Capacitor_SMD:C_0805_2012Metric","~"
"","","C63","C","Device:C","Capacitor_SMD:C_0805_2012Metric","~"
"","","C64","C","Device:C","Capacitor_SMD:C_0805_2012Metric","~"
"","","C65","1nF","Device:C","Capacitor_SMD:C_0805_2012Metric","~"
"","","C66","1nF","Device:C","Capacitor_SMD:C_0805_2012Metric","~"
"","","C67","1nF","Device:C","Capacitor_SMD:C_0805_2012Metric","~"
"","","C68","1nF","Device:C","Capacitor_SMD:C_0805_2012Metric","~"
"","","C69","1nF","Device:C","Capacitor_SMD:C_0805_2012Metric","~"
"","","C70","1nF","Device:C","Capacitor_SMD:C_0805_2012Metric","~"
"","","C71","1nF","Device:C","Capacitor_SMD:C_0805_2012Metric","~"
"","","C72","1nF","Device:C","Capacitor_SMD:C_0805_2012Metric","~"
"","","C73","1nF","Device:C","Capacitor_SMD:C_0805_2012Metric","~"
"","","C74","1nF","Device:C","Capacitor_SMD:C_0805_2012Metric","~"
"","","FB1","FerriteBead","Device:FerriteBead","Inductor_SMD:L_0805_2012Metric","~"
"","","FB2","FerriteBead","Device:FerriteBead","Inductor_SMD:L_0805_2012Metric","~"
"","","FB3","FerriteBead","Device:FerriteBead","Inductor_SMD:L_0805_2012Metric","~"
"","","FB4","FerriteBead","Device:FerriteBead","Inductor_SMD:L_0805_2012Metric","~"
"","","FB5","FerriteBead","Device:FerriteBead","Inductor_SMD:L_0805_2012Metric","~"
"","","FB6","FerriteBead","Device:FerriteBead","Inductor_SMD:L_0805_2012Metric","~"
"","","FB7","FerriteBead","Device:FerriteBead","Inductor_SMD:L_0805_2012Metric","~"
"","","FB8","FerriteBead","Device:FerriteBead","Inductor_SMD:L_0805_2012Metric","~"
"","","FB9","FerriteBead","Device:FerriteBead","Inductor_SMD:L_0805_2012Metric","~"
"","","J1","Conn_02x09_Odd_Even","Connector_Generic:Conn_02x09_Odd_Even","Connector_PinHeader_2.54mm:PinHeader_2x09_P2.54mm_Vertical_SMD","~"
"","","J2","Conn_02x10_Odd_Even","Connector_Generic:Conn_02x10_Odd_Even","Connector_PinHeader_2.54mm:PinHeader_2x10_P2.54mm_Vertical_SMD","~"
"","","J3","SMA","Connector:Conn_Coaxial","Connector_Coaxial:SMA_Amphenol_132203-12_Horizontal"," ~"
"","","J4","Molex Minifit","Connector_Generic:Conn_02x02_Top_Bottom","Connector_Molex:Molex_Mini-Fit_Jr_5569-04A2_2x02_P4.20mm_Horizontal","~"
"","","J5","Lemo","Connector:Conn_Coaxial","metarock:lemo_epb00250ntn"," ~"
"","","J6","Lemo","Connector:Conn_Coaxial","metarock:lemo_epb00250ntn"," ~"
"","","J7","Lemo","Connector:Conn_Coaxial","metarock:lemo_epb00250ntn"," ~"
"","","J8","Molex Minifit","Connector_Generic:Conn_02x02_Top_Bottom","Connector_Molex:Molex_Mini-Fit_Jr_5569-04A2_2x02_P4.20mm_Horizontal","~"
"","","J9","Lemo","Connector:Conn_Coaxial","metarock:lemo_epb00250ntn"," ~"
"","","J10","Conn_02x07_Odd_Even","Connector_Generic:Conn_02x07_Odd_Even","Connector_PinHeader_2.54mm:PinHeader_2x07_P2.54mm_Vertical_SMD","~"
"","","J11","Lemo","Connector:Conn_Coaxial","metarock:lemo_epb00250ntn"," ~"
"","","J12","Lemo","Connector:Conn_Coaxial","metarock:lemo_epb00250ntn"," ~"
"","","J14","Lemo","Connector:Conn_Coaxial","metarock:lemo_epb00250ntn"," ~"
"","","J16","SMA","Connector:Conn_Coaxial","Connector_Coaxial:SMA_Amphenol_132203-12_Horizontal"," ~"
"","","J17","Lemo","Connector:Conn_Coaxial","Connector_Coaxial:lemo_epb00250ntn"," ~"
"","","J18","Lemo","Connector:Conn_Coaxial","Connector_Coaxial:lemo_epb00250ntn"," ~"
"","","J19","Lemo","Connector:Conn_Coaxial","Connector_Coaxial:lemo_epb00250ntn"," ~"
"","","J20","Lemo","Connector:Conn_Coaxial","metarock:lemo_epb00250ntn"," ~"
"","","J21","Lemo","Connector:Conn_Coaxial","Connector_Coaxial:lemo_epb00250ntn"," ~"
"","","J22","Lemo","Connector:Conn_Coaxial","Connector_Coaxial:lemo_epb00250ntn"," ~"
"","","J23","Lemo","Connector:Conn_Coaxial","Connector_Coaxial:lemo_epb00250ntn"," ~"
"","","J24","Lemo","Connector:Conn_Coaxial","Connector_Coaxial:lemo_epb00250ntn"," ~"
"","","J25","Lemo","Connector:Conn_Coaxial","Connector_Coaxial:lemo_epb00250ntn"," ~"
"","","J27","Lemo","Connector:Conn_Coaxial","Connector_Coaxial:lemo_epb00250ntn"," ~"
"","","J29","Lemo","Connector:Conn_Coaxial","Connector_Coaxial:lemo_epb00250ntn"," ~"
"","","J30","Lemo","Connector:Conn_Coaxial","Connector_Coaxial:lemo_epb00250ntn"," ~"
"","","J31","Lemo","Connector:Conn_Coaxial","Connector_Coaxial:lemo_epb00250ntn"," ~"
"","","J32","Lemo","Connector:Conn_Coaxial","Connector_Coaxial:lemo_epb00250ntn"," ~"
"","","J33","Lemo","Connector:Conn_Coaxial","metarock:lemo_epb00250ntn"," ~"
"","","J34","Lemo","Connector:Conn_Coaxial","metarock:lemo_epb00250ntn"," ~"
"","","J35","Lemo","Connector:Conn_Coaxial","metarock:lemo_epb00250ntn"," ~"
"","","J36","Lemo","Connector:Conn_Coaxial","metarock:lemo_epb00250ntn"," ~"
"","","J37","Conn_01x02","Connector_Generic:Conn_01x02","Connector_PinHeader_2.54mm:PinHeader_1x02_P2.54mm_Vertical_SMD_Pin1Left","~"
"","","J38","Lemo","Connector:Conn_Coaxial","metarock:lemo_epb00250ntn"," ~"
"","","J39","Lemo","Connector:Conn_Coaxial","metarock:lemo_epb00250ntn"," ~"
"","","JP1","Jumper","Jumper:SolderJumper_2_Open","Jumper:SolderJumper-2_P1.3mm_Open_Pad1.0x1.5mm","~"
"","","JP2","Jumper","Jumper:SolderJumper_2_Open","Jumper:SolderJumper-2_P1.3mm_Open_Pad1.0x1.5mm","~"
"","","JP3","SolderJumper_3_Open","Jumper:SolderJumper_3_Open","Jumper:SolderJumper-3_P1.3mm_Open_Pad1.0x1.5mm","~"
"","","JP4","SolderJumper_3_Open","Jumper:SolderJumper_3_Open","Jumper:SolderJumper-3_P1.3mm_Open_Pad1.0x1.5mm","~"
"","","R1","R","Device:R","Resistor_SMD:R_0402_1005Metric","~"
"","","R2","R","Device:R","Resistor_SMD:R_0402_1005Metric","~"
"","","R3","R","Device:R","Resistor_SMD:R_0402_1005Metric","~"
"","","R4","33","Device:R","Resistor_SMD:R_0805_2012Metric","~"
"","","R5","0","Device:R","Resistor_SMD:R_0805_2012Metric","~"
"","","R6","1.2k","Device:R","Resistor_SMD:R_0805_2012Metric","~"
"","","R7","R","Device:R","Resistor_SMD:R_0402_1005Metric","~"
"","","R8","R","Device:R","Resistor_SMD:R_0402_1005Metric","~"
"","","R9","R/C","Device:R","Resistor_SMD:R_0603_1608Metric","~"
"","","R10","100","Device:R","Resistor_SMD:R_0402_1005Metric","~"
"","","R11","100","Device:R","Resistor_SMD:R_0402_1005Metric","~"
"","","R12","100","Device:R","Resistor_SMD:R_0402_1005Metric","~"
"","","R13","R","Device:R","Resistor_SMD:R_0402_1005Metric","~"
"","","R14","R","Device:R","Resistor_SMD:R_0402_1005Metric","~"
"","","R15","R","Device:R","Resistor_SMD:R_0402_1005Metric","~"
"","","R16","R","Device:R","Resistor_SMD:R_0402_1005Metric","~"
"","","R17","R","Device:R","Resistor_SMD:R_0402_1005Metric","~"
"","","R18","R","Device:R","Resistor_SMD:R_0402_1005Metric","~"
"","","R19","R","Device:R","Resistor_SMD:R_0402_1005Metric","~"
"","","R20","R","Device:R","Resistor_SMD:R_0402_1005Metric","~"
"","","R21","R","Device:R","Resistor_SMD:R_0402_1005Metric","~"
"","","R22","R","Device:R","Resistor_SMD:R_0402_1005Metric","~"
"","","R23","R","Device:R","Resistor_SMD:R_0402_1005Metric","~"
"","","R24","R","Device:R","Resistor_SMD:R_0402_1005Metric","~"
"","","R25","R","Device:R","Resistor_SMD:R_0402_1005Metric","~"
"","","R26","R","Device:R","Resistor_SMD:R_0402_1005Metric","~"
"","","R27","R","Device:R","Resistor_SMD:R_0402_1005Metric","~"
"","","R28","R","Device:R","Resistor_SMD:R_0402_1005Metric","~"
"","","R29","R","Device:R","Resistor_SMD:R_0402_1005Metric","~"
"","","R30","R","Device:R","Resistor_SMD:R_0402_1005Metric","~"
"","","R31","R","Device:R","Resistor_SMD:R_0402_1005Metric","~"
"","","R32","R","Device:R","Resistor_SMD:R_0402_1005Metric","~"
"","","R33","R","Device:R","Resistor_SMD:R_0402_1005Metric","~"
"","","R34","R","Device:R","Resistor_SMD:R_0402_1005Metric","~"
"","","R35","R","Device:R","Resistor_SMD:R_0402_1005Metric","~"
"","","R36","R","Device:R","Resistor_SMD:R_0402_1005Metric","~"
"","","RV1","R","Device:R_Potentiometer","Potentiometer_SMD:Potentiometer_Bourns_3214W_Vertical","~"
"","","RV2","R","Device:R_Potentiometer","Potentiometer_SMD:Potentiometer_Bourns_3214W_Vertical","~"
"","","RV3","R","Device:R_Potentiometer","Potentiometer_SMD:Potentiometer_Bourns_3214W_Vertical","~"
"","","RV4","R","Device:R_Potentiometer","Potentiometer_SMD:Potentiometer_Bourns_3214W_Vertical","~"
"","","RV5","R","Device:R_Potentiometer","Potentiometer_SMD:Potentiometer_Bourns_3214W_Vertical","~"
"","","RV6","R","Device:R_Potentiometer","Potentiometer_SMD:Potentiometer_Bourns_3214W_Vertical","~"
"","","RV7","R","Device:R_Potentiometer","Potentiometer_SMD:Potentiometer_Bourns_3214W_Vertical","~"
"","","RV8","R","Device:R_Potentiometer","Potentiometer_SMD:Potentiometer_Bourns_3214W_Vertical","~"
"","","RV9","R","Device:R_Potentiometer","Potentiometer_SMD:Potentiometer_Bourns_3214W_Vertical","~"
"","","RV10","R","Device:R_Potentiometer","Potentiometer_SMD:Potentiometer_Bourns_3214W_Vertical","~"
"","","RV11","R","Device:R_Potentiometer","Potentiometer_SMD:Potentiometer_Bourns_3214W_Vertical","~"
"","","RV12","R","Device:R_Potentiometer","Potentiometer_SMD:Potentiometer_Bourns_3214W_Vertical","~"
"","","RV13","R","Device:R_Potentiometer","Potentiometer_SMD:Potentiometer_Bourns_3214W_Vertical","~"
"","","RV14","R","Device:R_Potentiometer","Potentiometer_SMD:Potentiometer_Bourns_3214W_Vertical","~"
"","","RV15","R","Device:R_Potentiometer","Potentiometer_SMD:Potentiometer_Bourns_3214W_Vertical","~"
"","","RV16","R","Device:R_Potentiometer","Potentiometer_SMD:Potentiometer_Bourns_3214W_Vertical","~"
"","","RV17","R","Device:R_Potentiometer","Potentiometer_SMD:Potentiometer_Bourns_3214W_Vertical","~"
"","","RV18","R","Device:R_Potentiometer","Potentiometer_SMD:Potentiometer_Bourns_3214W_Vertical","~"
"","","TP1","TestPoint","Connector:TestPoint","TestPoint:TestPoint_Pad_D1.5mm","~"
"","","TP2","TestPoint","Connector:TestPoint","TestPoint:TestPoint_Pad_D1.5mm","~"
"","","TP3","TestPoint","Connector:TestPoint","TestPoint:TestPoint_Pad_D2.0mm","~"
"","","TP4","TestPoint","Connector:TestPoint","TestPoint:TestPoint_Pad_D2.0mm","~"
"","","TP5","TestPoint","Connector:TestPoint","TestPoint:TestPoint_Pad_D2.0mm","~"
"","","TP6","TestPoint","Connector:TestPoint","TestPoint:TestPoint_Pad_D1.5mm","~"
"","","TP7","TestPoint","Connector:TestPoint","TestPoint:TestPoint_Pad_D1.5mm","~"
"","","TP8","TestPoint","Connector:TestPoint","TestPoint:TestPoint_Pad_D2.0mm","~"
"","","TP9","TestPoint","Connector:TestPoint","TestPoint:TestPoint_Pad_D2.0mm","~"
"","","TP10","TestPoint","Connector:TestPoint","TestPoint:TestPoint_Pad_D2.0mm","~"
"","","TP11","TestPoint","Connector:TestPoint","TestPoint:TestPoint_Pad_D1.5mm","~"
"","","TP12","TestPoint","Connector:TestPoint","TestPoint:TestPoint_Pad_D1.5mm","~"
"","","TP13","TestPoint","Connector:TestPoint","TestPoint:TestPoint_Pad_D2.0mm","~"
"","","TP14","TestPoint","Connector:TestPoint","TestPoint:TestPoint_Pad_D2.0mm","~"
"","","TP15","TestPoint","Connector:TestPoint","TestPoint:TestPoint_Pad_D2.0mm","~"
"","","TP16","TestPoint","Connector:TestPoint","TestPoint:TestPoint_Pad_D2.0mm","~"
"","","TP17","TestPoint","Connector:TestPoint","TestPoint:TestPoint_Pad_D2.0mm","~"
"","","U1","metarock_asic","metarock:metarock_asic","metarock:metarock_asic",""
"","","U2","NLSV2T244D","Logic_LevelTranslator:NLSV2T244D","Package_SO:SOIC-8_3.9x4.9mm_P1.27mm","http://www.onsemi.com/pub/Collateral/NLSV2T244-D.PDF"
"","","U3","NLSV2T244D","Logic_LevelTranslator:NLSV2T244D","Package_SO:SOIC-8_3.9x4.9mm_P1.27mm","http://www.onsemi.com/pub/Collateral/NLSV2T244-D.PDF"
"","","U4","NLSV2T244D","Logic_LevelTranslator:NLSV2T244D","Package_SO:SOIC-8_3.9x4.9mm_P1.27mm","http://www.onsemi.com/pub/Collateral/NLSV2T244-D.PDF"
"","","U5","NLSV2T244D","Logic_LevelTranslator:NLSV2T244D","Package_SO:SOIC-8_3.9x4.9mm_P1.27mm","http://www.onsemi.com/pub/Collateral/NLSV2T244-D.PDF"
"","","U6","LMK03806","pebbles:LMK03806","Package_DFN_QFN:QFN-64-1EP_9x9mm_P0.5mm_EP7.3x7.3mm_ThermalVias",""
"","","U7","NLSV2T244D","Logic_LevelTranslator:NLSV2T244D","Package_SO:SOIC-8_3.9x4.9mm_P1.27mm","http://www.onsemi.com/pub/Collateral/NLSV2T244-D.PDF"
"","","U8","NLSV2T244D","Logic_LevelTranslator:NLSV2T244D","Package_SO:SOIC-8_3.9x4.9mm_P1.27mm","http://www.onsemi.com/pub/Collateral/NLSV2T244-D.PDF"
"","","U9","NLSV2T244D","Logic_LevelTranslator:NLSV2T244D","Package_SO:SOIC-8_3.9x4.9mm_P1.27mm","http://www.onsemi.com/pub/Collateral/NLSV2T244-D.PDF"
"","","Y1","Crystal","Device:Crystal","Crystal:Crystal_SMD_5032-2Pin_5.0x3.2mm","~"



"Collated Components:"

"Item","Qty","Reference(s)","Value","LibPart","Footprint","Datasheet"
"1","26","C1, C2, C4, C6, C8, C10, C11, C12, C13, C14, C40, C49, C50, C51, C52, C53, C54, C55, C56, C57, C58, C59, C60, C61, C63, C64","C","Device:C","Capacitor_SMD:C_0805_2012Metric","~"
"2","24","C3, C5, C7, C9, C39, C41, C42, C43, C44, C45, C46, C47, C48, C62, C65, C66, C67, C68, C69, C70, C71, C72, C73, C74","1nF","Device:C","Capacitor_SMD:C_0805_2012Metric","~"
"3","12","C15, C16, C17, C18, C19, C20, C21, C22, C25, C28, C31, C34","0.1uF","Device:C","Capacitor_SMD:C_0805_2012Metric","~"
"4","3","C23, C26, C30","1uF","Device:C","Capacitor_SMD:C_0805_2012Metric","~"
"5","4","C24, C29, C32, C33","10uF","Device:C","Capacitor_SMD:C_0805_2012Metric","~"
"6","1","C27","10nF","Device:C","Capacitor_SMD:C_0805_2012Metric","~"
"7","2","C35, C36","22pF","Device:C","Capacitor_SMD:C_0805_2012Metric","~"
"8","1","C37","4.7nF","Device:C","Capacitor_SMD:C_0805_2012Metric","~"
"9","1","C38","68pF","Device:C","Capacitor_SMD:C_0805_2012Metric","~"
"10","9","FB1, FB2, FB3, FB4, FB5, FB6, FB7, FB8, FB9","FerriteBead","Device:FerriteBead","Inductor_SMD:L_0805_2012Metric","~"
"11","1","J1","Conn_02x09_Odd_Even","Connector_Generic:Conn_02x09_Odd_Even","Connector_PinHeader_2.54mm:PinHeader_2x09_P2.54mm_Vertical_SMD","~"
"12","1","J2","Conn_02x10_Odd_Even","Connector_Generic:Conn_02x10_Odd_Even","Connector_PinHeader_2.54mm:PinHeader_2x10_P2.54mm_Vertical_SMD","~"
"13","2","J3, J16","SMA","Connector:Conn_Coaxial","Connector_Coaxial:SMA_Amphenol_132203-12_Horizontal"," ~"
"14","2","J4, J8","Molex Minifit","Connector_Generic:Conn_02x02_Top_Bottom","Connector_Molex:Molex_Mini-Fit_Jr_5569-04A2_2x02_P4.20mm_Horizontal","~"
"15","14","J5, J6, J7, J9, J11, J12, J14, J20, J33, J34, J35, J36, J38, J39","Lemo","Connector:Conn_Coaxial","metarock:lemo_epb00250ntn"," ~"
"16","1","J10","Conn_02x07_Odd_Even","Connector_Generic:Conn_02x07_Odd_Even","Connector_PinHeader_2.54mm:PinHeader_2x07_P2.54mm_Vertical_SMD","~"
"17","13","J17, J18, J19, J21, J22, J23, J24, J25, J27, J29, J30, J31, J32","Lemo","Connector:Conn_Coaxial","Connector_Coaxial:lemo_epb00250ntn"," ~"
"18","1","J37","Conn_01x02","Connector_Generic:Conn_01x02","Connector_PinHeader_2.54mm:PinHeader_1x02_P2.54mm_Vertical_SMD_Pin1Left","~"
"19","2","JP1, JP2","Jumper","Jumper:SolderJumper_2_Open","Jumper:SolderJumper-2_P1.3mm_Open_Pad1.0x1.5mm","~"
"20","2","JP3, JP4","SolderJumper_3_Open","Jumper:SolderJumper_3_Open","Jumper:SolderJumper-3_P1.3mm_Open_Pad1.0x1.5mm","~"
"21","29","R1, R2, R3, R7, R8, R13, R14, R15, R16, R17, R18, R19, R20, R21, R22, R23, R24, R25, R26, R27, R28, R29, R30, R31, R32, R33, R34, R35, R36","R","Device:R","Resistor_SMD:R_0402_1005Metric","~"
"22","1","R4","33","Device:R","Resistor_SMD:R_0805_2012Metric","~"
"23","1","R5","0","Device:R","Resistor_SMD:R_0805_2012Metric","~"
"24","1","R6","1.2k","Device:R","Resistor_SMD:R_0805_2012Metric","~"
"25","1","R9","R/C","Device:R","Resistor_SMD:R_0603_1608Metric","~"
"26","3","R10, R11, R12","100","Device:R","Resistor_SMD:R_0402_1005Metric","~"
"27","18","RV1, RV2, RV3, RV4, RV5, RV6, RV7, RV8, RV9, RV10, RV11, RV12, RV13, RV14, RV15, RV16, RV17, RV18","R","Device:R_Potentiometer","Potentiometer_SMD:Potentiometer_Bourns_3214W_Vertical","~"
"28","6","TP1, TP2, TP6, TP7, TP11, TP12","TestPoint","Connector:TestPoint","TestPoint:TestPoint_Pad_D1.5mm","~"
"29","11","TP3, TP4, TP5, TP8, TP9, TP10, TP13, TP14, TP15, TP16, TP17","TestPoint","Connector:TestPoint","TestPoint:TestPoint_Pad_D2.0mm","~"
"30","1","U1","metarock_asic","metarock:metarock_asic","metarock:metarock_asic",""
"31","7","U2, U3, U4, U5, U7, U8, U9","NLSV2T244D","Logic_LevelTranslator:NLSV2T244D","Package_SO:SOIC-8_3.9x4.9mm_P1.27mm","http://www.onsemi.com/pub/Collateral/NLSV2T244-D.PDF"
"32","1","U6","LMK03806","pebbles:LMK03806","Package_DFN_QFN:QFN-64-1EP_9x9mm_P0.5mm_EP7.3x7.3mm_ThermalVias",""
"33","1","Y1","Crystal","Device:Crystal","Crystal:Crystal_SMD_5032-2Pin_5.0x3.2mm","~"
