%!PS-Adobe-3.0
%%Creator: PCBNEW
%%CreationDate: Mon Dec 11 16:34:18 2023
%%Title: ()
%%Pages: 1
%%PageOrder: Ascend
%%BoundingBox: 0 0 596 842
%%DocumentMedia: A4 595 842 0 () ()
%%Orientation: Landscape
%%EndComments
%%BeginProlog
/line { newpath moveto lineto stroke } bind def
/cir0 { newpath 0 360 arc stroke } bind def
/cir1 { newpath 0 360 arc gsave fill grestore stroke } bind def
/cir2 { newpath 0 360 arc gsave fill grestore stroke } bind def
/arc0 { newpath arc stroke } bind def
/arc1 { newpath 4 index 4 index moveto arc closepath gsave fill
    grestore stroke } bind def
/arc2 { newpath 4 index 4 index moveto arc closepath gsave fill
    grestore stroke } bind def
/poly0 { stroke } bind def
/poly1 { closepath gsave fill grestore stroke } bind def
/poly2 { closepath gsave fill grestore stroke } bind def
/rect0 { rectstroke } bind def
/rect1 { rectfill } bind def
/rect2 { rectfill } bind def
/linemode0 { 0 setlinecap 0 setlinejoin 0 setlinewidth } bind def
/linemode1 { 1 setlinecap 1 setlinejoin } bind def
/dashedline { [200] 100 setdash } bind def
/solidline { [] 0 setdash } bind def
/phantomshow { moveto
    /KicadFont findfont 0.000001 scalefont setfont
    show } bind def
/textshow { gsave
    findfont exch scalefont setfont concat 1 scale 0 0 moveto show
    } bind def
/reencodefont {
  findfont dup length dict begin
  { 1 index /FID ne
    { def }
    { pop pop } ifelse
  } forall
  /Encoding ISOLatin1Encoding def
  currentdict
  end } bind def
/KicadFont /Helvetica reencodefont definefont pop
/KicadFont-Bold /Helvetica-Bold reencodefont definefont pop
/KicadFont-Oblique /Helvetica-Oblique reencodefont definefont pop
/KicadFont-BoldOblique /Helvetica-BoldOblique reencodefont definefont pop
%%EndProlog
%%Page: 1 1
%%BeginPageSetup
gsave
0.0072 0.0072 scale
linemode1
82680 0 translate 90 rotate
70.2091 setlinewidth
%%EndPageSetup
0 0 0 setrgbcolor
35.1045 setlinewidth
newpath
76017.3 80693.9 moveto
40912.7 80693.9 lineto
stroke
0 0 0 setrgbcolor
newpath
40912.7 35058.1 moveto
76017.3 35058.1 lineto
stroke
0 0 0 setrgbcolor
newpath
76017.3 35058.1 moveto
76017.3 80693.9 lineto
stroke
0 0 0 setrgbcolor
newpath
40912.7 80693.9 moveto
40912.7 35058.1 lineto
stroke
70.2091 setlinewidth
7.02091 setlinewidth
newpath
44627.5 41421.5 moveto
44697.7 41351.2 lineto
stroke
newpath
44697.7 41421.5 moveto
44627.5 41351.2 lineto
stroke
newpath
44627.5 40944 moveto
44697.7 40873.8 lineto
stroke
newpath
44697.7 40944 moveto
44627.5 40873.8 lineto
stroke
newpath
44627.5 40466.6 moveto
44697.7 40396.4 lineto
stroke
newpath
44697.7 40466.6 moveto
44627.5 40396.4 lineto
stroke
newpath
44627.5 39989.2 moveto
44697.7 39919 lineto
stroke
newpath
44697.7 39989.2 moveto
44627.5 39919 lineto
stroke
newpath
44627.5 39511.8 moveto
44697.7 39441.6 lineto
stroke
newpath
44697.7 39511.8 moveto
44627.5 39441.6 lineto
stroke
newpath
44627.5 39034.3 moveto
44697.7 38964.1 lineto
stroke
newpath
44697.7 39034.3 moveto
44627.5 38964.1 lineto
stroke
newpath
45104.9 41421.5 moveto
45175.1 41351.2 lineto
stroke
newpath
45175.1 41421.5 moveto
45104.9 41351.2 lineto
stroke
newpath
45104.9 40944 moveto
45175.1 40873.8 lineto
stroke
newpath
45175.1 40944 moveto
45104.9 40873.8 lineto
stroke
newpath
45104.9 40466.6 moveto
45175.1 40396.4 lineto
stroke
newpath
45175.1 40466.6 moveto
45104.9 40396.4 lineto
stroke
newpath
45104.9 39989.2 moveto
45175.1 39919 lineto
stroke
newpath
45175.1 39989.2 moveto
45104.9 39919 lineto
stroke
newpath
45104.9 39511.8 moveto
45175.1 39441.6 lineto
stroke
newpath
45175.1 39511.8 moveto
45104.9 39441.6 lineto
stroke
newpath
45104.9 39034.3 moveto
45175.1 38964.1 lineto
stroke
newpath
45175.1 39034.3 moveto
45104.9 38964.1 lineto
stroke
newpath
45582.3 41421.5 moveto
45652.5 41351.2 lineto
stroke
newpath
45652.5 41421.5 moveto
45582.3 41351.2 lineto
stroke
newpath
45582.3 40944 moveto
45652.5 40873.8 lineto
stroke
newpath
45652.5 40944 moveto
45582.3 40873.8 lineto
stroke
newpath
45582.3 40466.6 moveto
45652.5 40396.4 lineto
stroke
newpath
45652.5 40466.6 moveto
45582.3 40396.4 lineto
stroke
newpath
45582.3 39989.2 moveto
45652.5 39919 lineto
stroke
newpath
45652.5 39989.2 moveto
45582.3 39919 lineto
stroke
newpath
45582.3 39511.8 moveto
45652.5 39441.6 lineto
stroke
newpath
45652.5 39511.8 moveto
45582.3 39441.6 lineto
stroke
newpath
45582.3 39034.3 moveto
45652.5 38964.1 lineto
stroke
newpath
45652.5 39034.3 moveto
45582.3 38964.1 lineto
stroke
newpath
46059.8 41421.5 moveto
46130 41351.2 lineto
stroke
newpath
46130 41421.5 moveto
46059.8 41351.2 lineto
stroke
newpath
46059.8 40944 moveto
46130 40873.8 lineto
stroke
newpath
46130 40944 moveto
46059.8 40873.8 lineto
stroke
newpath
46059.8 40466.6 moveto
46130 40396.4 lineto
stroke
newpath
46130 40466.6 moveto
46059.8 40396.4 lineto
stroke
newpath
46059.8 39989.2 moveto
46130 39919 lineto
stroke
newpath
46130 39989.2 moveto
46059.8 39919 lineto
stroke
newpath
46059.8 39511.8 moveto
46130 39441.6 lineto
stroke
newpath
46130 39511.8 moveto
46059.8 39441.6 lineto
stroke
newpath
46059.8 39034.3 moveto
46130 38964.1 lineto
stroke
newpath
46130 39034.3 moveto
46059.8 38964.1 lineto
stroke
newpath
46537.2 41421.5 moveto
46607.4 41351.2 lineto
stroke
newpath
46607.4 41421.5 moveto
46537.2 41351.2 lineto
stroke
newpath
46537.2 40944 moveto
46607.4 40873.8 lineto
stroke
newpath
46607.4 40944 moveto
46537.2 40873.8 lineto
stroke
newpath
46537.2 40466.6 moveto
46607.4 40396.4 lineto
stroke
newpath
46607.4 40466.6 moveto
46537.2 40396.4 lineto
stroke
newpath
46537.2 39989.2 moveto
46607.4 39919 lineto
stroke
newpath
46607.4 39989.2 moveto
46537.2 39919 lineto
stroke
newpath
46537.2 39511.8 moveto
46607.4 39441.6 lineto
stroke
newpath
46607.4 39511.8 moveto
46537.2 39441.6 lineto
stroke
newpath
46537.2 39034.3 moveto
46607.4 38964.1 lineto
stroke
newpath
46607.4 39034.3 moveto
46537.2 38964.1 lineto
stroke
newpath
47014.6 41421.5 moveto
47084.8 41351.2 lineto
stroke
newpath
47084.8 41421.5 moveto
47014.6 41351.2 lineto
stroke
newpath
47014.6 40944 moveto
47084.8 40873.8 lineto
stroke
newpath
47084.8 40944 moveto
47014.6 40873.8 lineto
stroke
newpath
47014.6 40466.6 moveto
47084.8 40396.4 lineto
stroke
newpath
47084.8 40466.6 moveto
47014.6 40396.4 lineto
stroke
newpath
47014.6 39989.2 moveto
47084.8 39919 lineto
stroke
newpath
47084.8 39989.2 moveto
47014.6 39919 lineto
stroke
newpath
47014.6 39511.8 moveto
47084.8 39441.6 lineto
stroke
newpath
47084.8 39511.8 moveto
47014.6 39441.6 lineto
stroke
newpath
47014.6 39034.3 moveto
47084.8 38964.1 lineto
stroke
newpath
47084.8 39034.3 moveto
47014.6 38964.1 lineto
stroke
7.13324 setlinewidth
41639.4 37158 35.6662 cir0
41996.1 41883.8 35.6662 cir0
41996.1 40992.1 35.6662 cir0
42040.6 40100.5 35.6662 cir0
42040.6 39208.8 35.6662 cir0
42562.6 38507.1 35.6662 cir0
42562.6 38208.7 35.6662 cir0
43467.3 42953.8 35.6662 cir0
43467.3 37425.5 35.6662 cir0
43722.9 44502.2 35.6662 cir0
43779.4 40145.1 35.6662 cir0
44844.4 70285.5 35.6662 cir0
44853.2 67485.9 35.6662 cir0
44853.2 64817.9 35.6662 cir0
44853.2 56954.5 35.6662 cir0
44853.2 54128.6 35.6662 cir0
44938.5 42953.8 35.6662 cir0
45037.5 42298.4 35.6662 cir0
45134.7 51478 35.6662 cir0
45250.6 76702.9 35.6662 cir0
45397.3 45484.1 35.6662 cir0
45450 42298.4 35.6662 cir0
45812.3 56524.8 35.6662 cir0
45919.3 74179.5 35.6662 cir0
45974.2 69740.5 35.6662 cir0
46044.2 66921.5 35.6662 cir0
46186.8 37425.5 35.6662 cir0
46365.2 72842 35.6662 cir0
46397.8 45484.1 35.6662 cir0
46409.8 37960.5 35.6662 cir0
46555.8 65335.7 35.6662 cir0
46570.3 54964.4 35.6662 cir0
46721.8 76702.9 35.6662 cir0
46821.5 38193.9 35.6662 cir0
47033.9 76702.9 35.6662 cir0
47033.9 73332.5 35.6662 cir0
47033.9 57247 35.6662 cir0
47042.8 71914.7 35.6662 cir0
47042.8 68116.3 35.6662 cir0
47042.8 66029.8 35.6662 cir0
47568.9 42953.8 35.6662 cir0
47667 39226.6 35.6662 cir0
47738.3 40796 35.6662 cir0
47766.9 74357.6 35.6662 cir0
47791.8 37603.8 35.6662 cir0
47791.8 36801.3 35.6662 cir0
47791.8 35998.9 35.6662 cir0
47881 40635.5 35.6662 cir0
47881 39833 35.6662 cir0
47970.1 35463.9 35.6662 cir0
48041.1 41043.6 35.6662 cir0
48065.3 67053.4 35.6662 cir0
48103.9 41393.4 35.6662 cir0
48175.9 70964.7 35.6662 cir0
48209.2 70518.9 35.6662 cir0
48302.2 72935.8 35.6662 cir0
48409.3 70073.1 35.6662 cir0
48505.1 43399.6 35.6662 cir0
48505.1 41928.4 35.6662 cir0
48505.1 39208.8 35.6662 cir0
49218.5 76702.9 35.6662 cir0
49302.7 60859.9 35.6662 cir0
49441.4 69079.3 35.6662 cir0
49682.9 74285.8 35.6662 cir0
49750.3 72242.5 35.6662 cir0
49750.3 71952.9 35.6662 cir0
49753.5 39431.7 35.6662 cir0
49753.5 36177.2 35.6662 cir0
50021 53207.8 35.6662 cir0
50333 69079.3 35.6662 cir0
50333 65146.1 35.6662 cir0
50912.6 39164.2 35.6662 cir0
51031.6 47213 35.6662 cir0
51040.4 44334.4 35.6662 cir0
51040.4 42465.1 35.6662 cir0
51090.9 52806.6 35.6662 cir0
51093 72646.2 35.6662 cir0
51093 70074.8 35.6662 cir0
51224.7 69079.3 35.6662 cir0
51224.7 65142.6 35.6662 cir0
51481.5 76702.9 35.6662 cir0
51600 74294 35.6662 cir0
51759.7 40992.1 35.6662 cir0
51893.4 38272.6 35.6662 cir0
52116.3 69079.3 35.6662 cir0
52116.3 65156.7 35.6662 cir0
52207.6 45650.8 35.6662 cir0
52568.8 45631.9 35.6662 cir0
52695.9 41527.1 35.6662 cir0
52740.5 43042.9 35.6662 cir0
53008 69079.3 35.6662 cir0
53050.1 44088.7 35.6662 cir0
53111.6 55006.2 35.6662 cir0
53220.2 76702.9 35.6662 cir0
53462.6 55067.6 35.6662 cir0
53498.4 41482.5 35.6662 cir0
53506.5 47555.3 35.6662 cir0
53517 74320.7 35.6662 cir0
53543 43042.9 35.6662 cir0
53725.9 55181.7 35.6662 cir0
53899.7 69079.3 35.6662 cir0
54112 55392.4 35.6662 cir0
54300.9 41482.5 35.6662 cir0
54345.5 43042.9 35.6662 cir0
54603.5 47019.9 35.6662 cir0
54605.3 44113.3 35.6662 cir0
54791.3 69079.3 35.6662 cir0
54796.6 59982.3 35.6662 cir0
54798.5 58299.1 35.6662 cir0
55086.2 53286.1 35.6662 cir0
55424.4 76694 35.6662 cir0
55460.1 53519.9 35.6662 cir0
55462.3 73953.9 35.6662 cir0
55474.1 72279.4 35.6662 cir0
55593.8 51647.4 35.6662 cir0
55638.4 53297 35.6662 cir0
55683 69079.3 35.6662 cir0
55861.3 53519.9 35.6662 cir0
56004 58299.1 35.6662 cir0
56007.7 63001.3 35.6662 cir0
56084.2 53297 35.6662 cir0
56200.8 63001.3 35.6662 cir0
56307.1 53519.9 35.6662 cir0
56351.7 47010.8 35.6662 cir0
56385.1 63001.3 35.6662 cir0
56499.8 42062.1 35.6662 cir0
56565.7 53457.5 35.6662 cir0
56574.6 69079.3 35.6662 cir0
56708.4 47010.8 35.6662 cir0
56797.5 53332.6 35.6662 cir0
56832.6 70136.3 35.6662 cir0
56841.4 71549.2 35.6662 cir0
56841.4 70390.8 35.6662 cir0
57034.5 55822.4 35.6662 cir0
57189.7 58138.5 35.6662 cir0
57243.4 45450.4 35.6662 cir0
57377.1 47233.7 35.6662 cir0
57631.3 60254.3 35.6662 cir0
57796.2 48517.7 35.6662 cir0
57912.1 53609 35.6662 cir0
58130.2 53500 35.6662 cir0
58226.3 72279.4 35.6662 cir0
58242 48499.9 35.6662 cir0
58242.8 74259 35.6662 cir0
58315.8 55708.3 35.6662 cir0
58386 57015.9 35.6662 cir0
58426.4 71833.6 35.6662 cir0
58442.2 71387.7 35.6662 cir0
58472 70941.9 35.6662 cir0
58491.7 52360.7 35.6662 cir0
58547.5 55169.4 35.6662 cir0
58714.6 48482 35.6662 cir0
58714.6 45495 35.6662 cir0
58759.2 76702.9 35.6662 cir0
58833.6 53549.4 35.6662 cir0
59000.3 53716.1 35.6662 cir0
59158.3 64300.1 35.6662 cir0
59338.8 47010.8 35.6662 cir0
59395.3 60333.3 35.6662 cir0
59650.8 47010.8 35.6662 cir0
60088.6 55076.4 35.6662 cir0
60141.2 45450.4 35.6662 cir0
60319.6 47233.7 35.6662 cir0
60364.2 53341.5 35.6662 cir0
60364.2 52539.1 35.6662 cir0
60580 60342.1 35.6662 cir0
60649.5 72565.6 35.6662 cir0
60738.7 48517.7 35.6662 cir0
60988.3 76702.9 35.6662 cir0
60997.2 74117.1 35.6662 cir0
61202.3 48517.7 35.6662 cir0
61703.4 61000.3 35.6662 cir0
61791.2 56384.1 35.6662 cir0
61831.5 67954.5 35.6662 cir0
61931.6 73708.1 35.6662 cir0
61984.2 61877.9 35.6662 cir0
62013.7 45450.4 35.6662 cir0
62058.3 48571.2 35.6662 cir0
62192 46966.2 35.6662 cir0
62593.3 47010.8 35.6662 cir0
62637.9 45495 35.6662 cir0
63083.5 59873.3 35.6662 cir0
63083.5 59026.2 35.6662 cir0
63090.4 56384.1 35.6662 cir0
63248 56384.1 35.6662 cir0
63262 47233.7 35.6662 cir0
63406 56384.1 35.6662 cir0
63563.9 56384.1 35.6662 cir0
63616.6 67959.8 35.6662 cir0
63698.9 48517.7 35.6662 cir0
63721.9 56384.1 35.6662 cir0
63870.3 72674.5 35.6662 cir0
64126.9 48517.7 35.6662 cir0
64160.7 53382.6 35.6662 cir0
64554.9 45584.1 35.6662 cir0
64599.5 48392.9 35.6662 cir0
64777.8 71798.8 35.6662 cir0
64822.4 36444.7 35.6662 cir0
64822.4 36043.4 35.6662 cir0
65179.1 46966.2 35.6662 cir0
65580.3 46966.2 35.6662 cir0
65624.9 45495 35.6662 cir0
65981.6 36310.9 35.6662 cir0
66204.5 75766.7 35.6662 cir0
66204.5 47100 35.6662 cir0
66489.1 75248.7 35.6662 cir0
66650.3 48749.5 35.6662 cir0
66891.1 76407 35.6662 cir0
67131 71477 35.6662 cir0
67493.2 76411.2 35.6662 cir0
67542 48526.6 35.6662 cir0
67542 45539.6 35.6662 cir0
68344.5 48526.6 35.6662 cir0
68344.5 45539.6 35.6662 cir0
68785.7 49205.2 35.6662 cir0
68790.3 48709.2 35.6662 cir0
69496.6 76683.3 35.6662 cir0
70216.9 47010.8 35.6662 cir0
70391.8 54348 35.6662 cir0
70529 35865.1 35.6662 cir0
70573.6 47010.8 35.6662 cir0
70595.9 70037.8 35.6662 cir0
70618.2 73047.1 35.6662 cir0
70618.2 66671.8 35.6662 cir0
70618.2 63907.7 35.6662 cir0
70618.2 60965.2 35.6662 cir0
70618.2 58067.3 35.6662 cir0
70909.6 57165.1 35.6662 cir0
71420.7 35731.4 35.6662 cir0
72312.3 35731.4 35.6662 cir0
72408.5 44151.9 35.6662 cir0
72410.3 47002.4 35.6662 cir0
72490.7 68187.6 35.6662 cir0
72490.7 65423.5 35.6662 cir0
72490.7 62525.6 35.6662 cir0
72490.7 59583.1 35.6662 cir0
73300.2 47283.2 35.6662 cir0
73774.4 76683.3 35.6662 cir0
74323.5 45615.7 35.6662 cir0
74595.5 55761 35.6662 cir0
74604.3 53619.6 35.6662 cir0
74665.7 45589.4 35.6662 cir0
74987.3 35731.4 35.6662 cir0
13.3748 setlinewidth
newpath
59338.8 51714.3 moveto
59338.8 51580.5 lineto
stroke
newpath
59271.9 51647.4 moveto
59405.6 51647.4 lineto
stroke
newpath
62504.1 76769.8 moveto
62504.1 76636 lineto
stroke
newpath
62437.3 76702.9 moveto
62571 76702.9 lineto
stroke
newpath
65055.9 60619.6 moveto
65055.9 60485.8 lineto
stroke
newpath
64989 60552.7 moveto
65122.7 60552.7 lineto
stroke
newpath
71554.1 48824.1 moveto
71554.1 48690.4 lineto
stroke
newpath
71487.2 48757.2 moveto
71620.9 48757.2 lineto
stroke
newpath
71910.7 48824.1 moveto
71910.7 48690.4 lineto
stroke
newpath
71843.9 48757.2 moveto
71977.6 48757.2 lineto
stroke
newpath
72312 48824.1 moveto
72312 48690.4 lineto
stroke
newpath
72245.1 48757.2 moveto
72378.9 48757.2 lineto
stroke
newpath
72713.2 48824.1 moveto
72713.2 48690.4 lineto
stroke
newpath
72646.4 48757.2 moveto
72780.1 48757.2 lineto
stroke
newpath
73114.5 48824.1 moveto
73114.5 48690.4 lineto
stroke
newpath
73047.6 48757.2 moveto
73181.3 48757.2 lineto
stroke
newpath
73471.1 48824.1 moveto
73471.1 48690.4 lineto
stroke
newpath
73404.3 48757.2 moveto
73538 48757.2 lineto
stroke
newpath
73471.1 48200 moveto
73471.1 48066.2 lineto
stroke
newpath
73404.3 48133.1 moveto
73538 48133.1 lineto
stroke
31.5646 setlinewidth
newpath
41828.2 79763.4 moveto
41828.2 79986.6 lineto
41605 79986.6 lineto
41605 79763.4 lineto
41828.2 79763.4 lineto
poly0
newpath
41828.2 77980 moveto
41828.2 78203.2 lineto
41605 78203.2 lineto
41605 77980 lineto
41828.2 77980 lineto
poly0
newpath
41884.7 76279.2 moveto
41884.7 76502.4 lineto
41661.5 76502.4 lineto
41661.5 76279.2 lineto
41884.7 76279.2 lineto
poly0
newpath
41884.7 74495.9 moveto
41884.7 74719.1 lineto
41661.5 74719.1 lineto
41661.5 74495.9 lineto
41884.7 74495.9 lineto
poly0
newpath
41884.7 73425.9 moveto
41884.7 73649.1 lineto
41661.5 73649.1 lineto
41661.5 73425.9 lineto
41884.7 73425.9 lineto
poly0
newpath
41884.7 71642.6 moveto
41884.7 71865.8 lineto
41661.5 71865.8 lineto
41661.5 71642.6 lineto
41884.7 71642.6 lineto
poly0
newpath
41884.7 70572.6 moveto
41884.7 70795.8 lineto
41661.5 70795.8 lineto
41661.5 70572.6 lineto
41884.7 70572.6 lineto
poly0
newpath
41884.7 68789.3 moveto
41884.7 69012.5 lineto
41661.5 69012.5 lineto
41661.5 68789.3 lineto
41884.7 68789.3 lineto
poly0
newpath
41884.7 67719.3 moveto
41884.7 67942.5 lineto
41661.5 67942.5 lineto
41661.5 67719.3 lineto
41884.7 67719.3 lineto
poly0
newpath
41884.7 65936 moveto
41884.7 66159.2 lineto
41661.5 66159.2 lineto
41661.5 65936 lineto
41884.7 65936 lineto
poly0
newpath
41884.7 64866 moveto
41884.7 65089.2 lineto
41661.5 65089.2 lineto
41661.5 64866 lineto
41884.7 64866 lineto
poly0
newpath
41884.7 63082.7 moveto
41884.7 63305.9 lineto
41661.5 63305.9 lineto
41661.5 63082.7 lineto
41884.7 63082.7 lineto
poly0
newpath
41884.7 57376.1 moveto
41884.7 57599.3 lineto
41661.5 57599.3 lineto
41661.5 57376.1 lineto
41884.7 57376.1 lineto
poly0
newpath
41884.7 55592.8 moveto
41884.7 55816 lineto
41661.5 55816 lineto
41661.5 55592.8 lineto
41884.7 55592.8 lineto
poly0
newpath
41884.7 54433.7 moveto
41884.7 54656.9 lineto
41661.5 54656.9 lineto
41661.5 54433.7 lineto
41884.7 54433.7 lineto
poly0
newpath
41884.7 52650.4 moveto
41884.7 52873.6 lineto
41661.5 52873.6 lineto
41661.5 52650.4 lineto
41884.7 52650.4 lineto
poly0
newpath
41884.7 51491.2 moveto
41884.7 51714.4 lineto
41661.5 51714.4 lineto
41661.5 51491.2 lineto
41884.7 51491.2 lineto
poly0
newpath
41884.7 49707.9 moveto
41884.7 49931.1 lineto
41661.5 49931.1 lineto
41661.5 49707.9 lineto
41884.7 49707.9 lineto
poly0
newpath
42719.9 78871.7 moveto
42719.9 79094.9 lineto
42496.7 79094.9 lineto
42496.7 78871.7 lineto
42719.9 78871.7 lineto
poly0
newpath
42776.4 75387.6 moveto
42776.4 75610.8 lineto
42553.2 75610.8 lineto
42553.2 75387.6 lineto
42776.4 75387.6 lineto
poly0
newpath
42776.4 72534.3 moveto
42776.4 72757.5 lineto
42553.2 72757.5 lineto
42553.2 72534.3 lineto
42776.4 72534.3 lineto
poly0
newpath
42776.4 69681 moveto
42776.4 69904.2 lineto
42553.2 69904.2 lineto
42553.2 69681 lineto
42776.4 69681 lineto
poly0
newpath
42776.4 66827.7 moveto
42776.4 67050.9 lineto
42553.2 67050.9 lineto
42553.2 66827.7 lineto
42776.4 66827.7 lineto
poly0
newpath
42776.4 63974.4 moveto
42776.4 64197.6 lineto
42553.2 64197.6 lineto
42553.2 63974.4 lineto
42776.4 63974.4 lineto
poly0
newpath
42776.4 56484.5 moveto
42776.4 56707.7 lineto
42553.2 56707.7 lineto
42553.2 56484.5 lineto
42776.4 56484.5 lineto
poly0
newpath
42776.4 53542 moveto
42776.4 53765.2 lineto
42553.2 53765.2 lineto
42553.2 53542 lineto
42776.4 53542 lineto
poly0
newpath
42776.4 50599.6 moveto
42776.4 50822.8 lineto
42553.2 50822.8 lineto
42553.2 50599.6 lineto
42776.4 50599.6 lineto
poly0
newpath
43611.5 79763.4 moveto
43611.5 79986.6 lineto
43388.3 79986.6 lineto
43388.3 79763.4 lineto
43611.5 79763.4 lineto
poly0
newpath
43611.5 77980 moveto
43611.5 78203.2 lineto
43388.3 78203.2 lineto
43388.3 77980 lineto
43611.5 77980 lineto
poly0
newpath
43668.1 76279.2 moveto
43668.1 76502.4 lineto
43444.9 76502.4 lineto
43444.9 76279.2 lineto
43668.1 76279.2 lineto
poly0
newpath
43668.1 74495.9 moveto
43668.1 74719.1 lineto
43444.9 74719.1 lineto
43444.9 74495.9 lineto
43668.1 74495.9 lineto
poly0
newpath
43668.1 73425.9 moveto
43668.1 73649.1 lineto
43444.9 73649.1 lineto
43444.9 73425.9 lineto
43668.1 73425.9 lineto
poly0
newpath
43668.1 71642.6 moveto
43668.1 71865.8 lineto
43444.9 71865.8 lineto
43444.9 71642.6 lineto
43668.1 71642.6 lineto
poly0
newpath
43668.1 70572.6 moveto
43668.1 70795.8 lineto
43444.9 70795.8 lineto
43444.9 70572.6 lineto
43668.1 70572.6 lineto
poly0
newpath
43668.1 68789.3 moveto
43668.1 69012.5 lineto
43444.9 69012.5 lineto
43444.9 68789.3 lineto
43668.1 68789.3 lineto
poly0
newpath
43668.1 67719.3 moveto
43668.1 67942.5 lineto
43444.9 67942.5 lineto
43444.9 67719.3 lineto
43668.1 67719.3 lineto
poly0
newpath
43668.1 65936 moveto
43668.1 66159.2 lineto
43444.9 66159.2 lineto
43444.9 65936 lineto
43668.1 65936 lineto
poly0
newpath
43668.1 64866 moveto
43668.1 65089.2 lineto
43444.9 65089.2 lineto
43444.9 64866 lineto
43668.1 64866 lineto
poly0
newpath
43668.1 63082.7 moveto
43668.1 63305.9 lineto
43444.9 63305.9 lineto
43444.9 63082.7 lineto
43668.1 63082.7 lineto
poly0
newpath
43668.1 57376.1 moveto
43668.1 57599.3 lineto
43444.9 57599.3 lineto
43444.9 57376.1 lineto
43668.1 57376.1 lineto
poly0
newpath
43668.1 55592.8 moveto
43668.1 55816 lineto
43444.9 55816 lineto
43444.9 55592.8 lineto
43668.1 55592.8 lineto
poly0
newpath
43668.1 54433.7 moveto
43668.1 54656.9 lineto
43444.9 54656.9 lineto
43444.9 54433.7 lineto
43668.1 54433.7 lineto
poly0
newpath
43668.1 52650.4 moveto
43668.1 52873.6 lineto
43444.9 52873.6 lineto
43444.9 52650.4 lineto
43668.1 52650.4 lineto
poly0
newpath
43668.1 51491.2 moveto
43668.1 51714.4 lineto
43444.9 51714.4 lineto
43444.9 51491.2 lineto
43668.1 51491.2 lineto
poly0
newpath
43668.1 49707.9 moveto
43668.1 49931.1 lineto
43444.9 49931.1 lineto
43444.9 49707.9 lineto
43668.1 49707.9 lineto
poly0
newpath
44770.7 79718.8 moveto
44770.7 79942 lineto
44547.5 79942 lineto
44547.5 79718.8 lineto
44770.7 79718.8 lineto
poly0
newpath
44770.7 77935.5 moveto
44770.7 78158.7 lineto
44547.5 78158.7 lineto
44547.5 77935.5 lineto
44770.7 77935.5 lineto
poly0
newpath
45662.3 78827.1 moveto
45662.3 79050.3 lineto
45439.1 79050.3 lineto
45439.1 78827.1 lineto
45662.3 78827.1 lineto
poly0
newpath
46554 79718.8 moveto
46554 79942 lineto
46330.8 79942 lineto
46330.8 79718.8 lineto
46554 79718.8 lineto
poly0
newpath
46554 77935.5 moveto
46554 78158.7 lineto
46330.8 78158.7 lineto
46330.8 77935.5 lineto
46554 77935.5 lineto
poly0
newpath
47100.9 50599.6 moveto
47100.9 50822.8 lineto
46877.7 50822.8 lineto
46877.7 50599.6 lineto
47100.9 50599.6 lineto
poly0
newpath
47100.9 48816.3 moveto
47100.9 49039.5 lineto
46877.7 49039.5 lineto
46877.7 48816.3 lineto
47100.9 48816.3 lineto
poly0
newpath
47713.2 79718.8 moveto
47713.2 79942 lineto
47490 79942 lineto
47490 79718.8 lineto
47713.2 79718.8 lineto
poly0
newpath
47713.2 77935.5 moveto
47713.2 78158.7 lineto
47490 78158.7 lineto
47490 77935.5 lineto
47713.2 77935.5 lineto
poly0
newpath
47992.6 49707.9 moveto
47992.6 49931.1 lineto
47769.4 49931.1 lineto
47769.4 49707.9 lineto
47992.6 49707.9 lineto
poly0
newpath
48604.8 78827.1 moveto
48604.8 79050.3 lineto
48381.6 79050.3 lineto
48381.6 78827.1 lineto
48604.8 78827.1 lineto
poly0
newpath
48884.2 50599.6 moveto
48884.2 50822.8 lineto
48661 50822.8 lineto
48661 50599.6 lineto
48884.2 50599.6 lineto
poly0
newpath
48884.2 48816.3 moveto
48884.2 49039.5 lineto
48661 49039.5 lineto
48661 48816.3 lineto
48884.2 48816.3 lineto
poly0
newpath
49496.5 79718.8 moveto
49496.5 79942 lineto
49273.3 79942 lineto
49273.3 79718.8 lineto
49496.5 79718.8 lineto
poly0
newpath
49496.5 77935.5 moveto
49496.5 78158.7 lineto
49273.3 78158.7 lineto
49273.3 77935.5 lineto
49496.5 77935.5 lineto
poly0
newpath
50655.6 79718.8 moveto
50655.6 79942 lineto
50432.4 79942 lineto
50432.4 79718.8 lineto
50655.6 79718.8 lineto
poly0
newpath
50655.6 77935.5 moveto
50655.6 78158.7 lineto
50432.4 78158.7 lineto
50432.4 77935.5 lineto
50655.6 77935.5 lineto
poly0
newpath
51547.3 78827.1 moveto
51547.3 79050.3 lineto
51324.1 79050.3 lineto
51324.1 78827.1 lineto
51547.3 78827.1 lineto
poly0
newpath
52438.9 79718.8 moveto
52438.9 79942 lineto
52215.7 79942 lineto
52215.7 79718.8 lineto
52438.9 79718.8 lineto
poly0
newpath
52438.9 77935.5 moveto
52438.9 78158.7 lineto
52215.7 78158.7 lineto
52215.7 77935.5 lineto
52438.9 77935.5 lineto
poly0
newpath
53508.9 79718.8 moveto
53508.9 79942 lineto
53285.7 79942 lineto
53285.7 79718.8 lineto
53508.9 79718.8 lineto
poly0
newpath
53508.9 77935.5 moveto
53508.9 78158.7 lineto
53285.7 78158.7 lineto
53285.7 77935.5 lineto
53508.9 77935.5 lineto
poly0
newpath
54400.6 78827.1 moveto
54400.6 79050.3 lineto
54177.4 79050.3 lineto
54177.4 78827.1 lineto
54400.6 78827.1 lineto
poly0
newpath
55292.2 79718.8 moveto
55292.2 79942 lineto
55069 79942 lineto
55069 79718.8 lineto
55292.2 79718.8 lineto
poly0
newpath
55292.2 77935.5 moveto
55292.2 78158.7 lineto
55069 78158.7 lineto
55069 77935.5 lineto
55292.2 77935.5 lineto
poly0
newpath
56362.2 79718.8 moveto
56362.2 79942 lineto
56139 79942 lineto
56139 79718.8 lineto
56362.2 79718.8 lineto
poly0
newpath
56362.2 77935.5 moveto
56362.2 78158.7 lineto
56139 78158.7 lineto
56139 77935.5 lineto
56362.2 77935.5 lineto
poly0
newpath
57253.9 78827.1 moveto
57253.9 79050.3 lineto
57030.7 79050.3 lineto
57030.7 78827.1 lineto
57253.9 78827.1 lineto
poly0
newpath
58145.5 79718.8 moveto
58145.5 79942 lineto
57922.3 79942 lineto
57922.3 79718.8 lineto
58145.5 79718.8 lineto
poly0
newpath
58145.5 77935.5 moveto
58145.5 78158.7 lineto
57922.3 78158.7 lineto
57922.3 77935.5 lineto
58145.5 77935.5 lineto
poly0
newpath
59215.5 79718.8 moveto
59215.5 79942 lineto
58992.3 79942 lineto
58992.3 79718.8 lineto
59215.5 79718.8 lineto
poly0
newpath
59215.5 77935.5 moveto
59215.5 78158.7 lineto
58992.3 78158.7 lineto
58992.3 77935.5 lineto
59215.5 77935.5 lineto
poly0
newpath
60107.2 78827.1 moveto
60107.2 79050.3 lineto
59884 79050.3 lineto
59884 78827.1 lineto
60107.2 78827.1 lineto
poly0
newpath
60998.8 79718.8 moveto
60998.8 79942 lineto
60775.6 79942 lineto
60775.6 79718.8 lineto
60998.8 79718.8 lineto
poly0
newpath
60998.8 77935.5 moveto
60998.8 78158.7 lineto
60775.6 78158.7 lineto
60775.6 77935.5 lineto
60998.8 77935.5 lineto
poly0
newpath
62068.8 79718.8 moveto
62068.8 79942 lineto
61845.6 79942 lineto
61845.6 79718.8 lineto
62068.8 79718.8 lineto
poly0
newpath
62068.8 77935.5 moveto
62068.8 78158.7 lineto
61845.6 78158.7 lineto
61845.6 77935.5 lineto
62068.8 77935.5 lineto
poly0
newpath
62960.5 78827.1 moveto
62960.5 79050.3 lineto
62737.3 79050.3 lineto
62737.3 78827.1 lineto
62960.5 78827.1 lineto
poly0
newpath
63852.1 79718.8 moveto
63852.1 79942 lineto
63628.9 79942 lineto
63628.9 79718.8 lineto
63852.1 79718.8 lineto
poly0
newpath
63852.1 77935.5 moveto
63852.1 78158.7 lineto
63628.9 78158.7 lineto
63628.9 77935.5 lineto
63852.1 77935.5 lineto
poly0
newpath
64922.1 79718.8 moveto
64922.1 79942 lineto
64698.9 79942 lineto
64698.9 79718.8 lineto
64922.1 79718.8 lineto
poly0
newpath
64922.1 77935.5 moveto
64922.1 78158.7 lineto
64698.9 78158.7 lineto
64698.9 77935.5 lineto
64922.1 77935.5 lineto
poly0
newpath
65813.7 78827.1 moveto
65813.7 79050.3 lineto
65590.6 79050.3 lineto
65590.6 78827.1 lineto
65813.7 78827.1 lineto
poly0
newpath
66705.4 79718.8 moveto
66705.4 79942 lineto
66482.2 79942 lineto
66482.2 79718.8 lineto
66705.4 79718.8 lineto
poly0
newpath
66705.4 77935.5 moveto
66705.4 78158.7 lineto
66482.2 78158.7 lineto
66482.2 77935.5 lineto
66705.4 77935.5 lineto
poly0
newpath
67775.4 79718.8 moveto
67775.4 79942 lineto
67552.2 79942 lineto
67552.2 79718.8 lineto
67775.4 79718.8 lineto
poly0
newpath
67775.4 77935.5 moveto
67775.4 78158.7 lineto
67552.2 78158.7 lineto
67552.2 77935.5 lineto
67775.4 77935.5 lineto
poly0
newpath
68667 78827.1 moveto
68667 79050.3 lineto
68443.8 79050.3 lineto
68443.8 78827.1 lineto
68667 78827.1 lineto
poly0
newpath
69558.7 79718.8 moveto
69558.7 79942 lineto
69335.5 79942 lineto
69335.5 79718.8 lineto
69558.7 79718.8 lineto
poly0
newpath
69558.7 77935.5 moveto
69558.7 78158.7 lineto
69335.5 78158.7 lineto
69335.5 77935.5 lineto
69558.7 77935.5 lineto
poly0
newpath
70628.7 79718.8 moveto
70628.7 79942 lineto
70405.5 79942 lineto
70405.5 79718.8 lineto
70628.7 79718.8 lineto
poly0
newpath
70628.7 77935.5 moveto
70628.7 78158.7 lineto
70405.5 78158.7 lineto
70405.5 77935.5 lineto
70628.7 77935.5 lineto
poly0
newpath
71520.3 78827.1 moveto
71520.3 79050.3 lineto
71297.1 79050.3 lineto
71297.1 78827.1 lineto
71520.3 78827.1 lineto
poly0
newpath
72412 79718.8 moveto
72412 79942 lineto
72188.8 79942 lineto
72188.8 79718.8 lineto
72412 79718.8 lineto
poly0
newpath
72412 77935.5 moveto
72412 78158.7 lineto
72188.8 78158.7 lineto
72188.8 77935.5 lineto
72412 77935.5 lineto
poly0
newpath
73482 79718.8 moveto
73482 79942 lineto
73258.8 79942 lineto
73258.8 79718.8 lineto
73482 79718.8 lineto
poly0
newpath
73482 77935.5 moveto
73482 78158.7 lineto
73258.8 78158.7 lineto
73258.8 77935.5 lineto
73482 77935.5 lineto
poly0
newpath
73493.9 75387.6 moveto
73493.9 75610.8 lineto
73270.7 75610.8 lineto
73270.7 75387.6 lineto
73493.9 75387.6 lineto
poly0
newpath
73493.9 73604.3 moveto
73493.9 73827.5 lineto
73270.7 73827.5 lineto
73270.7 73604.3 lineto
73493.9 73604.3 lineto
poly0
newpath
73493.9 72445.1 moveto
73493.9 72668.3 lineto
73270.7 72668.3 lineto
73270.7 72445.1 lineto
73493.9 72445.1 lineto
poly0
newpath
73493.9 70661.8 moveto
73493.9 70885 lineto
73270.7 70885 lineto
73270.7 70661.8 lineto
73493.9 70661.8 lineto
poly0
newpath
73493.9 69502.7 moveto
73493.9 69725.9 lineto
73270.7 69725.9 lineto
73270.7 69502.7 lineto
73493.9 69502.7 lineto
poly0
newpath
73493.9 67719.3 moveto
73493.9 67942.5 lineto
73270.7 67942.5 lineto
73270.7 67719.3 lineto
73493.9 67719.3 lineto
poly0
newpath
73493.9 66738.5 moveto
73493.9 66961.7 lineto
73270.7 66961.7 lineto
73270.7 66738.5 lineto
73493.9 66738.5 lineto
poly0
newpath
73493.9 64955.2 moveto
73493.9 65178.4 lineto
73270.7 65178.4 lineto
73270.7 64955.2 lineto
73493.9 64955.2 lineto
poly0
newpath
73493.9 63796.1 moveto
73493.9 64019.3 lineto
73270.7 64019.3 lineto
73270.7 63796.1 lineto
73493.9 63796.1 lineto
poly0
newpath
73493.9 62012.8 moveto
73493.9 62235.9 lineto
73270.7 62235.9 lineto
73270.7 62012.8 lineto
73493.9 62012.8 lineto
poly0
newpath
73493.9 60853.6 moveto
73493.9 61076.8 lineto
73270.7 61076.8 lineto
73270.7 60853.6 lineto
73493.9 60853.6 lineto
poly0
newpath
73493.9 59070.3 moveto
73493.9 59293.5 lineto
73270.7 59293.5 lineto
73270.7 59070.3 lineto
73493.9 59070.3 lineto
poly0
newpath
74373.6 78827.1 moveto
74373.6 79050.3 lineto
74150.4 79050.3 lineto
74150.4 78827.1 lineto
74373.6 78827.1 lineto
poly0
newpath
74385.6 74495.9 moveto
74385.6 74719.1 lineto
74162.4 74719.1 lineto
74162.4 74495.9 lineto
74385.6 74495.9 lineto
poly0
newpath
74385.6 71553.5 moveto
74385.6 71776.7 lineto
74162.4 71776.7 lineto
74162.4 71553.5 lineto
74385.6 71553.5 lineto
poly0
newpath
74385.6 68611 moveto
74385.6 68834.2 lineto
74162.4 68834.2 lineto
74162.4 68611 lineto
74385.6 68611 lineto
poly0
newpath
74385.6 65846.9 moveto
74385.6 66070.1 lineto
74162.4 66070.1 lineto
74162.4 65846.9 lineto
74385.6 65846.9 lineto
poly0
newpath
74385.6 62904.4 moveto
74385.6 63127.6 lineto
74162.4 63127.6 lineto
74162.4 62904.4 lineto
74385.6 62904.4 lineto
poly0
newpath
74385.6 59961.9 moveto
74385.6 60185.1 lineto
74162.4 60185.1 lineto
74162.4 59961.9 lineto
74385.6 59961.9 lineto
poly0
newpath
75265.3 79718.8 moveto
75265.3 79942 lineto
75042.1 79942 lineto
75042.1 79718.8 lineto
75265.3 79718.8 lineto
poly0
newpath
75265.3 77935.5 moveto
75265.3 78158.7 lineto
75042.1 78158.7 lineto
75042.1 77935.5 lineto
75265.3 77935.5 lineto
poly0
newpath
75277.2 75387.6 moveto
75277.2 75610.8 lineto
75054 75610.8 lineto
75054 75387.6 lineto
75277.2 75387.6 lineto
poly0
newpath
75277.2 73604.3 moveto
75277.2 73827.5 lineto
75054 73827.5 lineto
75054 73604.3 lineto
75277.2 73604.3 lineto
poly0
newpath
75277.2 72445.1 moveto
75277.2 72668.3 lineto
75054 72668.3 lineto
75054 72445.1 lineto
75277.2 72445.1 lineto
poly0
newpath
75277.2 70661.8 moveto
75277.2 70885 lineto
75054 70885 lineto
75054 70661.8 lineto
75277.2 70661.8 lineto
poly0
newpath
75277.2 69502.7 moveto
75277.2 69725.9 lineto
75054 69725.9 lineto
75054 69502.7 lineto
75277.2 69502.7 lineto
poly0
newpath
75277.2 67719.3 moveto
75277.2 67942.5 lineto
75054 67942.5 lineto
75054 67719.3 lineto
75277.2 67719.3 lineto
poly0
newpath
75277.2 66738.5 moveto
75277.2 66961.7 lineto
75054 66961.7 lineto
75054 66738.5 lineto
75277.2 66738.5 lineto
poly0
newpath
75277.2 64955.2 moveto
75277.2 65178.4 lineto
75054 65178.4 lineto
75054 64955.2 lineto
75277.2 64955.2 lineto
poly0
newpath
75277.2 63796.1 moveto
75277.2 64019.3 lineto
75054 64019.3 lineto
75054 63796.1 lineto
75277.2 63796.1 lineto
poly0
newpath
75277.2 62012.8 moveto
75277.2 62235.9 lineto
75054 62235.9 lineto
75054 62012.8 lineto
75277.2 62012.8 lineto
poly0
newpath
75277.2 60853.6 moveto
75277.2 61076.8 lineto
75054 61076.8 lineto
75054 60853.6 lineto
75277.2 60853.6 lineto
poly0
newpath
75277.2 59070.3 moveto
75277.2 59293.5 lineto
75054 59293.5 lineto
75054 59070.3 lineto
75277.2 59070.3 lineto
poly0
52.6568 setlinewidth
newpath
42746.9 60394.7 moveto
43010.2 60658 lineto
42746.9 60921.3 lineto
42483.7 60658 lineto
42746.9 60394.7 lineto
poly0
newpath
74077.7 51293.9 moveto
74341 51557.2 lineto
74077.7 51820.5 lineto
73814.5 51557.2 lineto
74077.7 51293.9 lineto
poly0
59.6777 setlinewidth
newpath
41556.9 61848.1 moveto
42153.7 61251.3 lineto
stroke
newpath
42153.7 61848.1 moveto
41556.9 61251.3 lineto
stroke
41855.3 61549.7 298.388 cir0
newpath
41556.9 60064.8 moveto
42153.7 59468 lineto
stroke
newpath
42153.7 60064.8 moveto
41556.9 59468 lineto
stroke
41855.3 59766.4 298.388 cir0
newpath
43340.2 61848.1 moveto
43937 61251.3 lineto
stroke
newpath
43937 61848.1 moveto
43340.2 61251.3 lineto
stroke
43638.6 61549.7 298.388 cir0
newpath
43340.2 60064.8 moveto
43937 59468 lineto
stroke
newpath
43937 60064.8 moveto
43340.2 59468 lineto
stroke
43638.6 59766.4 298.388 cir0
newpath
72887.7 52747.2 moveto
73484.5 52150.5 lineto
stroke
newpath
73484.5 52747.2 moveto
72887.7 52150.5 lineto
stroke
73186.1 52448.8 298.388 cir0
newpath
72887.7 50963.9 moveto
73484.5 50367.1 lineto
stroke
newpath
73484.5 50963.9 moveto
72887.7 50367.1 lineto
stroke
73186.1 50665.5 298.388 cir0
newpath
74671 52747.2 moveto
75267.8 52150.5 lineto
stroke
newpath
75267.8 52747.2 moveto
74671 52150.5 lineto
stroke
74969.4 52448.8 298.388 cir0
newpath
74671 50963.9 moveto
75267.8 50367.1 lineto
stroke
newpath
75267.8 50963.9 moveto
74671 50367.1 lineto
stroke
74969.4 50665.5 298.388 cir0
63.1882 setlinewidth
newpath
58573.8 42480.9 moveto
59205.7 41849 lineto
stroke
newpath
59205.7 42480.9 moveto
58573.8 41849 lineto
stroke
newpath
58889.8 42480.9 moveto
58889.8 41849 lineto
stroke
newpath
58573.8 42165 moveto
59205.7 42165 lineto
stroke
newpath
58573.8 40550.2 moveto
59205.7 39918.3 lineto
stroke
newpath
59205.7 40550.2 moveto
58573.8 39918.3 lineto
stroke
newpath
58889.8 40550.2 moveto
58889.8 39918.3 lineto
stroke
newpath
58573.8 40234.2 moveto
59205.7 40234.2 lineto
stroke
newpath
60048.2 42480.9 moveto
60680.1 41849 lineto
stroke
newpath
60680.1 42480.9 moveto
60048.2 41849 lineto
stroke
newpath
60364.2 42480.9 moveto
60364.2 41849 lineto
stroke
newpath
60048.2 42165 moveto
60680.1 42165 lineto
stroke
newpath
60048.2 40550.2 moveto
60680.1 39918.3 lineto
stroke
newpath
60680.1 40550.2 moveto
60048.2 39918.3 lineto
stroke
newpath
60364.2 40550.2 moveto
60364.2 39918.3 lineto
stroke
newpath
60048.2 40234.2 moveto
60680.1 40234.2 lineto
stroke
newpath
62723.2 42480.9 moveto
63355.1 41849 lineto
stroke
newpath
63355.1 42480.9 moveto
62723.2 41849 lineto
stroke
newpath
63039.1 42480.9 moveto
63039.1 41849 lineto
stroke
newpath
62723.2 42165 moveto
63355.1 42165 lineto
stroke
newpath
62723.2 40550.2 moveto
63355.1 39918.3 lineto
stroke
newpath
63355.1 40550.2 moveto
62723.2 39918.3 lineto
stroke
newpath
63039.1 40550.2 moveto
63039.1 39918.3 lineto
stroke
newpath
62723.2 40234.2 moveto
63355.1 40234.2 lineto
stroke
newpath
64197.6 42480.9 moveto
64829.5 41849 lineto
stroke
newpath
64829.5 42480.9 moveto
64197.6 41849 lineto
stroke
newpath
64513.5 42480.9 moveto
64513.5 41849 lineto
stroke
newpath
64197.6 42165 moveto
64829.5 42165 lineto
stroke
newpath
64197.6 40550.2 moveto
64829.5 39918.3 lineto
stroke
newpath
64829.5 40550.2 moveto
64197.6 39918.3 lineto
stroke
newpath
64513.5 40550.2 moveto
64513.5 39918.3 lineto
stroke
newpath
64197.6 40234.2 moveto
64829.5 40234.2 lineto
stroke
70.2091 setlinewidth
0 0 0 setrgbcolor
0 0 0 setrgbcolor
newpath
41799.5 33950.6 moveto
41799.5 34652.7 lineto
41966.7 34652.7 lineto
42067 34619.2 lineto
42133.9 34552.4 lineto
42167.3 34485.5 lineto
42200.7 34351.8 lineto
42200.7 34251.5 lineto
42167.3 34117.8 lineto
42133.9 34050.9 lineto
42067 33984 lineto
41966.7 33950.6 lineto
41799.5 33950.6 lineto
stroke
newpath
42501.6 33950.6 moveto
42501.6 34418.7 lineto
stroke
newpath
42501.6 34284.9 moveto
42535.1 34351.8 lineto
42568.5 34385.2 lineto
42635.4 34418.7 lineto
42702.2 34418.7 lineto
stroke
newpath
42936.3 33950.6 moveto
42936.3 34418.7 lineto
stroke
newpath
42936.3 34652.7 moveto
42902.8 34619.2 lineto
42936.3 34585.8 lineto
42969.7 34619.2 lineto
42936.3 34652.7 lineto
42936.3 34585.8 lineto
stroke
newpath
43370.9 33950.6 moveto
43304 33984 lineto
43270.6 34050.9 lineto
43270.6 34652.7 lineto
stroke
newpath
43738.6 33950.6 moveto
43671.8 33984 lineto
43638.4 34050.9 lineto
43638.4 34652.7 lineto
stroke
newpath
44541 33950.6 moveto
44541 34652.7 lineto
44775.1 34151.2 lineto
45009.1 34652.7 lineto
45009.1 33950.6 lineto
stroke
newpath
45644.3 33950.6 moveto
45644.3 34318.4 lineto
45610.9 34385.2 lineto
45544 34418.7 lineto
45410.3 34418.7 lineto
45343.4 34385.2 lineto
stroke
newpath
45644.3 33984 moveto
45577.5 33950.6 lineto
45410.3 33950.6 lineto
45343.4 33984 lineto
45310 34050.9 lineto
45310 34117.8 lineto
45343.4 34184.6 lineto
45410.3 34218.1 lineto
45577.5 34218.1 lineto
45644.3 34251.5 lineto
stroke
newpath
45978.7 34418.7 moveto
45978.7 33716.6 lineto
stroke
newpath
45978.7 34385.2 moveto
46045.5 34418.7 lineto
46179.3 34418.7 lineto
46246.1 34385.2 lineto
46279.5 34351.8 lineto
46313 34284.9 lineto
46313 34084.3 lineto
46279.5 34017.5 lineto
46246.1 33984 lineto
46179.3 33950.6 lineto
46045.5 33950.6 lineto
45978.7 33984 lineto
stroke
newpath
46613.9 34017.5 moveto
46647.3 33984 lineto
46613.9 33950.6 lineto
46580.4 33984 lineto
46613.9 34017.5 lineto
46613.9 33950.6 lineto
stroke
newpath
46613.9 34385.2 moveto
46647.3 34351.8 lineto
46613.9 34318.4 lineto
46580.4 34351.8 lineto
46613.9 34385.2 lineto
46613.9 34318.4 lineto
stroke
7.02091 setlinewidth
newpath
40825 32828.9 moveto
40895.2 32758.7 lineto
stroke
newpath
40895.2 32828.9 moveto
40825 32758.7 lineto
stroke
70.2091 setlinewidth
0 0 0 setrgbcolor
0 0 0 setrgbcolor
newpath
41933.3 33178.3 moveto
42000.1 33178.3 lineto
42067 33144.9 lineto
42100.4 33111.4 lineto
42133.9 33044.6 lineto
42167.3 32910.8 lineto
42167.3 32743.7 lineto
42133.9 32609.9 lineto
42100.4 32543.1 lineto
42067 32509.6 lineto
42000.1 32476.2 lineto
41933.3 32476.2 lineto
41866.4 32509.6 lineto
41833 32543.1 lineto
41799.5 32609.9 lineto
41766.1 32743.7 lineto
41766.1 32910.8 lineto
41799.5 33044.6 lineto
41833 33111.4 lineto
41866.4 33144.9 lineto
41933.3 33178.3 lineto
stroke
newpath
42468.2 32543.1 moveto
42501.6 32509.6 lineto
42468.2 32476.2 lineto
42434.8 32509.6 lineto
42468.2 32543.1 lineto
42468.2 32476.2 lineto
stroke
newpath
42769.1 33111.4 moveto
42802.5 33144.9 lineto
42869.4 33178.3 lineto
43036.6 33178.3 lineto
43103.4 33144.9 lineto
43136.9 33111.4 lineto
43170.3 33044.6 lineto
43170.3 32977.7 lineto
43136.9 32877.4 lineto
42735.7 32476.2 lineto
43170.3 32476.2 lineto
stroke
newpath
43604.9 33178.3 moveto
43671.8 33178.3 lineto
43738.6 33144.9 lineto
43772.1 33111.4 lineto
43805.5 33044.6 lineto
43838.9 32910.8 lineto
43838.9 32743.7 lineto
43805.5 32609.9 lineto
43772.1 32543.1 lineto
43738.6 32509.6 lineto
43671.8 32476.2 lineto
43604.9 32476.2 lineto
43538.1 32509.6 lineto
43504.6 32543.1 lineto
43471.2 32609.9 lineto
43437.8 32743.7 lineto
43437.8 32910.8 lineto
43471.2 33044.6 lineto
43504.6 33111.4 lineto
43538.1 33144.9 lineto
43604.9 33178.3 lineto
stroke
newpath
44273.6 33178.3 moveto
44340.4 33178.3 lineto
44407.3 33144.9 lineto
44440.7 33111.4 lineto
44474.2 33044.6 lineto
44507.6 32910.8 lineto
44507.6 32743.7 lineto
44474.2 32609.9 lineto
44440.7 32543.1 lineto
44407.3 32509.6 lineto
44340.4 32476.2 lineto
44273.6 32476.2 lineto
44206.7 32509.6 lineto
44173.3 32543.1 lineto
44139.8 32609.9 lineto
44106.4 32743.7 lineto
44106.4 32910.8 lineto
44139.8 33044.6 lineto
44173.3 33111.4 lineto
44206.7 33144.9 lineto
44273.6 33178.3 lineto
stroke
newpath
44808.5 32476.2 moveto
44808.5 32944.3 lineto
stroke
newpath
44808.5 32877.4 moveto
44841.9 32910.8 lineto
44908.8 32944.3 lineto
45009.1 32944.3 lineto
45076 32910.8 lineto
45109.4 32844 lineto
45109.4 32476.2 lineto
stroke
newpath
45109.4 32844 moveto
45142.8 32910.8 lineto
45209.7 32944.3 lineto
45310 32944.3 lineto
45376.9 32910.8 lineto
45410.3 32844 lineto
45410.3 32476.2 lineto
stroke
newpath
45744.6 32476.2 moveto
45744.6 32944.3 lineto
stroke
newpath
45744.6 32877.4 moveto
45778.1 32910.8 lineto
45844.9 32944.3 lineto
45945.2 32944.3 lineto
46012.1 32910.8 lineto
46045.5 32844 lineto
46045.5 32476.2 lineto
stroke
newpath
46045.5 32844 moveto
46079 32910.8 lineto
46145.8 32944.3 lineto
46246.1 32944.3 lineto
46313 32910.8 lineto
46346.4 32844 lineto
46346.4 32476.2 lineto
stroke
newpath
47717.2 33211.7 moveto
47115.4 32309 lineto
stroke
newpath
48619.9 33178.3 moveto
48686.7 33178.3 lineto
48753.6 33144.9 lineto
48787 33111.4 lineto
48820.4 33044.6 lineto
48853.9 32910.8 lineto
48853.9 32743.7 lineto
48820.4 32609.9 lineto
48787 32543.1 lineto
48753.6 32509.6 lineto
48686.7 32476.2 lineto
48619.9 32476.2 lineto
48553 32509.6 lineto
48519.6 32543.1 lineto
48486.1 32609.9 lineto
48452.7 32743.7 lineto
48452.7 32910.8 lineto
48486.1 33044.6 lineto
48519.6 33111.4 lineto
48553 33144.9 lineto
48619.9 33178.3 lineto
stroke
newpath
49154.8 32543.1 moveto
49188.2 32509.6 lineto
49154.8 32476.2 lineto
49121.3 32509.6 lineto
49154.8 32543.1 lineto
49154.8 32476.2 lineto
stroke
newpath
49622.8 33178.3 moveto
49689.7 33178.3 lineto
49756.6 33144.9 lineto
49790 33111.4 lineto
49823.4 33044.6 lineto
49856.9 32910.8 lineto
49856.9 32743.7 lineto
49823.4 32609.9 lineto
49790 32543.1 lineto
49756.6 32509.6 lineto
49689.7 32476.2 lineto
49622.8 32476.2 lineto
49556 32509.6 lineto
49522.5 32543.1 lineto
49489.1 32609.9 lineto
49455.7 32743.7 lineto
49455.7 32910.8 lineto
49489.1 33044.6 lineto
49522.5 33111.4 lineto
49556 33144.9 lineto
49622.8 33178.3 lineto
stroke
newpath
50291.5 33178.3 moveto
50358.4 33178.3 lineto
50425.2 33144.9 lineto
50458.7 33111.4 lineto
50492.1 33044.6 lineto
50525.5 32910.8 lineto
50525.5 32743.7 lineto
50492.1 32609.9 lineto
50458.7 32543.1 lineto
50425.2 32509.6 lineto
50358.4 32476.2 lineto
50291.5 32476.2 lineto
50224.6 32509.6 lineto
50191.2 32543.1 lineto
50157.8 32609.9 lineto
50124.3 32743.7 lineto
50124.3 32910.8 lineto
50157.8 33044.6 lineto
50191.2 33111.4 lineto
50224.6 33144.9 lineto
50291.5 33178.3 lineto
stroke
newpath
50759.6 33178.3 moveto
51227.6 33178.3 lineto
50926.7 32476.2 lineto
stroke
newpath
51528.5 32476.2 moveto
51662.2 32476.2 lineto
51729.1 32509.6 lineto
51762.5 32543.1 lineto
51829.4 32643.4 lineto
51862.8 32777.1 lineto
51862.8 33044.6 lineto
51829.4 33111.4 lineto
51796 33144.9 lineto
51729.1 33178.3 lineto
51595.4 33178.3 lineto
51528.5 33144.9 lineto
51495.1 33111.4 lineto
51461.6 33044.6 lineto
51461.6 32877.4 lineto
51495.1 32810.5 lineto
51528.5 32777.1 lineto
51595.4 32743.7 lineto
51729.1 32743.7 lineto
51796 32777.1 lineto
51829.4 32810.5 lineto
51862.8 32877.4 lineto
stroke
newpath
52130.3 33178.3 moveto
52130.3 33044.6 lineto
stroke
newpath
52397.8 33178.3 moveto
52397.8 33044.6 lineto
stroke
newpath
53434.2 32208.7 moveto
53400.8 32242.2 lineto
53333.9 32342.5 lineto
53300.5 32409.3 lineto
53267 32509.6 lineto
53233.6 32676.8 lineto
53233.6 32810.5 lineto
53267 32977.7 lineto
53300.5 33078 lineto
53333.9 33144.9 lineto
53400.8 33245.2 lineto
53434.2 33278.6 lineto
stroke
newpath
53634.8 33178.3 moveto
54069.4 33178.3 lineto
53835.4 32910.8 lineto
53935.7 32910.8 lineto
54002.5 32877.4 lineto
54036 32844 lineto
54069.4 32777.1 lineto
54069.4 32609.9 lineto
54036 32543.1 lineto
54002.5 32509.6 lineto
53935.7 32476.2 lineto
53735.1 32476.2 lineto
53668.2 32509.6 lineto
53634.8 32543.1 lineto
stroke
newpath
54671.2 33178.3 moveto
54537.5 33178.3 lineto
54470.6 33144.9 lineto
54437.2 33111.4 lineto
54370.3 33011.1 lineto
54336.9 32877.4 lineto
54336.9 32609.9 lineto
54370.3 32543.1 lineto
54403.7 32509.6 lineto
54470.6 32476.2 lineto
54604.3 32476.2 lineto
54671.2 32509.6 lineto
54704.6 32543.1 lineto
54738.1 32609.9 lineto
54738.1 32777.1 lineto
54704.6 32844 lineto
54671.2 32877.4 lineto
54604.3 32910.8 lineto
54470.6 32910.8 lineto
54403.7 32877.4 lineto
54370.3 32844 lineto
54336.9 32777.1 lineto
stroke
newpath
55573.9 32476.2 moveto
55573.9 33178.3 lineto
stroke
newpath
55874.8 32476.2 moveto
55874.8 32844 lineto
55841.4 32910.8 lineto
55774.5 32944.3 lineto
55674.2 32944.3 lineto
55607.3 32910.8 lineto
55573.9 32877.4 lineto
stroke
newpath
56309.4 32476.2 moveto
56242.5 32509.6 lineto
56209.1 32543.1 lineto
56175.7 32609.9 lineto
56175.7 32810.5 lineto
56209.1 32877.4 lineto
56242.5 32910.8 lineto
56309.4 32944.3 lineto
56409.7 32944.3 lineto
56476.6 32910.8 lineto
56510 32877.4 lineto
56543.4 32810.5 lineto
56543.4 32609.9 lineto
56510 32543.1 lineto
56476.6 32509.6 lineto
56409.7 32476.2 lineto
56309.4 32476.2 lineto
stroke
newpath
56944.6 32476.2 moveto
56877.8 32509.6 lineto
56844.3 32576.5 lineto
56844.3 33178.3 lineto
stroke
newpath
57479.6 32509.6 moveto
57412.7 32476.2 lineto
57279 32476.2 lineto
57212.1 32509.6 lineto
57178.7 32576.5 lineto
57178.7 32844 lineto
57212.1 32910.8 lineto
57279 32944.3 lineto
57412.7 32944.3 lineto
57479.6 32910.8 lineto
57513 32844 lineto
57513 32777.1 lineto
57178.7 32710.2 lineto
stroke
newpath
57780.5 32509.6 moveto
57847.3 32476.2 lineto
57981.1 32476.2 lineto
58047.9 32509.6 lineto
58081.4 32576.5 lineto
58081.4 32609.9 lineto
58047.9 32676.8 lineto
57981.1 32710.2 lineto
57880.8 32710.2 lineto
57813.9 32743.7 lineto
57780.5 32810.5 lineto
57780.5 32844 lineto
57813.9 32910.8 lineto
57880.8 32944.3 lineto
57981.1 32944.3 lineto
58047.9 32910.8 lineto
stroke
newpath
58315.4 32208.7 moveto
58348.8 32242.2 lineto
58415.7 32342.5 lineto
58449.1 32409.3 lineto
58482.6 32509.6 lineto
58516 32676.8 lineto
58516 32810.5 lineto
58482.6 32977.7 lineto
58449.1 33078 lineto
58415.7 33144.9 lineto
58348.8 33245.2 lineto
58315.4 33278.6 lineto
stroke
7.13324 setlinewidth
40859.5 31867.1 35.6662 cir0
70.2091 setlinewidth
0 0 0 setrgbcolor
0 0 0 setrgbcolor
newpath
41933.3 32251.5 moveto
42000.1 32251.5 lineto
42067 32218.1 lineto
42100.4 32184.7 lineto
42133.9 32117.8 lineto
42167.3 31984.1 lineto
42167.3 31816.9 lineto
42133.9 31683.2 lineto
42100.4 31616.3 lineto
42067 31582.9 lineto
42000.1 31549.4 lineto
41933.3 31549.4 lineto
41866.4 31582.9 lineto
41833 31616.3 lineto
41799.5 31683.2 lineto
41766.1 31816.9 lineto
41766.1 31984.1 lineto
41799.5 32117.8 lineto
41833 32184.7 lineto
41866.4 32218.1 lineto
41933.3 32251.5 lineto
stroke
newpath
42468.2 31616.3 moveto
42501.6 31582.9 lineto
42468.2 31549.4 lineto
42434.8 31582.9 lineto
42468.2 31616.3 lineto
42468.2 31549.4 lineto
stroke
newpath
42769.1 32184.7 moveto
42802.5 32218.1 lineto
42869.4 32251.5 lineto
43036.6 32251.5 lineto
43103.4 32218.1 lineto
43136.9 32184.7 lineto
43170.3 32117.8 lineto
43170.3 32050.9 lineto
43136.9 31950.6 lineto
42735.7 31549.4 lineto
43170.3 31549.4 lineto
stroke
newpath
43604.9 32251.5 moveto
43671.8 32251.5 lineto
43738.6 32218.1 lineto
43772.1 32184.7 lineto
43805.5 32117.8 lineto
43838.9 31984.1 lineto
43838.9 31816.9 lineto
43805.5 31683.2 lineto
43772.1 31616.3 lineto
43738.6 31582.9 lineto
43671.8 31549.4 lineto
43604.9 31549.4 lineto
43538.1 31582.9 lineto
43504.6 31616.3 lineto
43471.2 31683.2 lineto
43437.8 31816.9 lineto
43437.8 31984.1 lineto
43471.2 32117.8 lineto
43504.6 32184.7 lineto
43538.1 32218.1 lineto
43604.9 32251.5 lineto
stroke
newpath
44073 32251.5 moveto
44507.6 32251.5 lineto
44273.6 31984.1 lineto
44373.9 31984.1 lineto
44440.7 31950.6 lineto
44474.2 31917.2 lineto
44507.6 31850.3 lineto
44507.6 31683.2 lineto
44474.2 31616.3 lineto
44440.7 31582.9 lineto
44373.9 31549.4 lineto
44173.3 31549.4 lineto
44106.4 31582.9 lineto
44073 31616.3 lineto
stroke
newpath
44808.5 31549.4 moveto
44808.5 32017.5 lineto
stroke
newpath
44808.5 31950.6 moveto
44841.9 31984.1 lineto
44908.8 32017.5 lineto
45009.1 32017.5 lineto
45076 31984.1 lineto
45109.4 31917.2 lineto
45109.4 31549.4 lineto
stroke
newpath
45109.4 31917.2 moveto
45142.8 31984.1 lineto
45209.7 32017.5 lineto
45310 32017.5 lineto
45376.9 31984.1 lineto
45410.3 31917.2 lineto
45410.3 31549.4 lineto
stroke
newpath
45744.6 31549.4 moveto
45744.6 32017.5 lineto
stroke
newpath
45744.6 31950.6 moveto
45778.1 31984.1 lineto
45844.9 32017.5 lineto
45945.2 32017.5 lineto
46012.1 31984.1 lineto
46045.5 31917.2 lineto
46045.5 31549.4 lineto
stroke
newpath
46045.5 31917.2 moveto
46079 31984.1 lineto
46145.8 32017.5 lineto
46246.1 32017.5 lineto
46313 31984.1 lineto
46346.4 31917.2 lineto
46346.4 31549.4 lineto
stroke
newpath
47717.2 32285 moveto
47115.4 31382.3 lineto
stroke
newpath
48619.9 32251.5 moveto
48686.7 32251.5 lineto
48753.6 32218.1 lineto
48787 32184.7 lineto
48820.4 32117.8 lineto
48853.9 31984.1 lineto
48853.9 31816.9 lineto
48820.4 31683.2 lineto
48787 31616.3 lineto
48753.6 31582.9 lineto
48686.7 31549.4 lineto
48619.9 31549.4 lineto
48553 31582.9 lineto
48519.6 31616.3 lineto
48486.1 31683.2 lineto
48452.7 31816.9 lineto
48452.7 31984.1 lineto
48486.1 32117.8 lineto
48519.6 32184.7 lineto
48553 32218.1 lineto
48619.9 32251.5 lineto
stroke
newpath
49154.8 31616.3 moveto
49188.2 31582.9 lineto
49154.8 31549.4 lineto
49121.3 31582.9 lineto
49154.8 31616.3 lineto
49154.8 31549.4 lineto
stroke
newpath
49622.8 32251.5 moveto
49689.7 32251.5 lineto
49756.6 32218.1 lineto
49790 32184.7 lineto
49823.4 32117.8 lineto
49856.9 31984.1 lineto
49856.9 31816.9 lineto
49823.4 31683.2 lineto
49790 31616.3 lineto
49756.6 31582.9 lineto
49689.7 31549.4 lineto
49622.8 31549.4 lineto
49556 31582.9 lineto
49522.5 31616.3 lineto
49489.1 31683.2 lineto
49455.7 31816.9 lineto
49455.7 31984.1 lineto
49489.1 32117.8 lineto
49522.5 32184.7 lineto
49556 32218.1 lineto
49622.8 32251.5 lineto
stroke
newpath
50291.5 32251.5 moveto
50358.4 32251.5 lineto
50425.2 32218.1 lineto
50458.7 32184.7 lineto
50492.1 32117.8 lineto
50525.5 31984.1 lineto
50525.5 31816.9 lineto
50492.1 31683.2 lineto
50458.7 31616.3 lineto
50425.2 31582.9 lineto
50358.4 31549.4 lineto
50291.5 31549.4 lineto
50224.6 31582.9 lineto
50191.2 31616.3 lineto
50157.8 31683.2 lineto
50124.3 31816.9 lineto
50124.3 31984.1 lineto
50157.8 32117.8 lineto
50191.2 32184.7 lineto
50224.6 32218.1 lineto
50291.5 32251.5 lineto
stroke
newpath
50926.7 31950.6 moveto
50859.9 31984.1 lineto
50826.4 32017.5 lineto
50793 32084.4 lineto
50793 32117.8 lineto
50826.4 32184.7 lineto
50859.9 32218.1 lineto
50926.7 32251.5 lineto
51060.5 32251.5 lineto
51127.3 32218.1 lineto
51160.8 32184.7 lineto
51194.2 32117.8 lineto
51194.2 32084.4 lineto
51160.8 32017.5 lineto
51127.3 31984.1 lineto
51060.5 31950.6 lineto
50926.7 31950.6 lineto
50859.9 31917.2 lineto
50826.4 31883.8 lineto
50793 31816.9 lineto
50793 31683.2 lineto
50826.4 31616.3 lineto
50859.9 31582.9 lineto
50926.7 31549.4 lineto
51060.5 31549.4 lineto
51127.3 31582.9 lineto
51160.8 31616.3 lineto
51194.2 31683.2 lineto
51194.2 31816.9 lineto
51160.8 31883.8 lineto
51127.3 31917.2 lineto
51060.5 31950.6 lineto
stroke
newpath
51628.8 32251.5 moveto
51695.7 32251.5 lineto
51762.5 32218.1 lineto
51796 32184.7 lineto
51829.4 32117.8 lineto
51862.8 31984.1 lineto
51862.8 31816.9 lineto
51829.4 31683.2 lineto
51796 31616.3 lineto
51762.5 31582.9 lineto
51695.7 31549.4 lineto
51628.8 31549.4 lineto
51561.9 31582.9 lineto
51528.5 31616.3 lineto
51495.1 31683.2 lineto
51461.6 31816.9 lineto
51461.6 31984.1 lineto
51495.1 32117.8 lineto
51528.5 32184.7 lineto
51561.9 32218.1 lineto
51628.8 32251.5 lineto
stroke
newpath
52130.3 32251.5 moveto
52130.3 32117.8 lineto
stroke
newpath
52397.8 32251.5 moveto
52397.8 32117.8 lineto
stroke
newpath
53434.2 31282 moveto
53400.8 31315.4 lineto
53333.9 31415.7 lineto
53300.5 31482.6 lineto
53267 31582.9 lineto
53233.6 31750 lineto
53233.6 31883.8 lineto
53267 32050.9 lineto
53300.5 32151.2 lineto
53333.9 32218.1 lineto
53400.8 32318.4 lineto
53434.2 32351.8 lineto
stroke
newpath
53668.2 32184.7 moveto
53701.6 32218.1 lineto
53768.5 32251.5 lineto
53935.7 32251.5 lineto
54002.5 32218.1 lineto
54036 32184.7 lineto
54069.4 32117.8 lineto
54069.4 32050.9 lineto
54036 31950.6 lineto
53634.8 31549.4 lineto
54069.4 31549.4 lineto
stroke
newpath
54671.2 32017.5 moveto
54671.2 31549.4 lineto
stroke
newpath
54504 32285 moveto
54336.9 31783.5 lineto
54771.5 31783.5 lineto
stroke
newpath
54972.1 32251.5 moveto
55406.7 32251.5 lineto
55172.7 31984.1 lineto
55273 31984.1 lineto
55339.9 31950.6 lineto
55373.3 31917.2 lineto
55406.7 31850.3 lineto
55406.7 31683.2 lineto
55373.3 31616.3 lineto
55339.9 31582.9 lineto
55273 31549.4 lineto
55072.4 31549.4 lineto
55005.5 31582.9 lineto
54972.1 31616.3 lineto
stroke
newpath
56242.5 31549.4 moveto
56242.5 32251.5 lineto
stroke
newpath
56543.4 31549.4 moveto
56543.4 31917.2 lineto
56510 31984.1 lineto
56443.1 32017.5 lineto
56342.8 32017.5 lineto
56276 31984.1 lineto
56242.5 31950.6 lineto
stroke
newpath
56978.1 31549.4 moveto
56911.2 31582.9 lineto
56877.8 31616.3 lineto
56844.3 31683.2 lineto
56844.3 31883.8 lineto
56877.8 31950.6 lineto
56911.2 31984.1 lineto
56978.1 32017.5 lineto
57078.4 32017.5 lineto
57145.2 31984.1 lineto
57178.7 31950.6 lineto
57212.1 31883.8 lineto
57212.1 31683.2 lineto
57178.7 31616.3 lineto
57145.2 31582.9 lineto
57078.4 31549.4 lineto
56978.1 31549.4 lineto
stroke
newpath
57613.3 31549.4 moveto
57546.4 31582.9 lineto
57513 31649.7 lineto
57513 32251.5 lineto
stroke
newpath
58148.2 31582.9 moveto
58081.4 31549.4 lineto
57947.6 31549.4 lineto
57880.8 31582.9 lineto
57847.3 31649.7 lineto
57847.3 31917.2 lineto
57880.8 31984.1 lineto
57947.6 32017.5 lineto
58081.4 32017.5 lineto
58148.2 31984.1 lineto
58181.7 31917.2 lineto
58181.7 31850.3 lineto
57847.3 31783.5 lineto
stroke
newpath
58449.1 31582.9 moveto
58516 31549.4 lineto
58649.7 31549.4 lineto
58716.6 31582.9 lineto
58750 31649.7 lineto
58750 31683.2 lineto
58716.6 31750 lineto
58649.7 31783.5 lineto
58549.4 31783.5 lineto
58482.6 31816.9 lineto
58449.1 31883.8 lineto
58449.1 31917.2 lineto
58482.6 31984.1 lineto
58549.4 32017.5 lineto
58649.7 32017.5 lineto
58716.6 31984.1 lineto
stroke
newpath
58984 31282 moveto
59017.5 31315.4 lineto
59084.3 31415.7 lineto
59117.8 31482.6 lineto
59151.2 31582.9 lineto
59184.6 31750 lineto
59184.6 31883.8 lineto
59151.2 32050.9 lineto
59117.8 32151.2 lineto
59084.3 32218.1 lineto
59017.5 32318.4 lineto
58984 32351.8 lineto
stroke
13.3748 setlinewidth
newpath
40828.3 31007.2 moveto
40828.3 30873.4 lineto
stroke
newpath
40761.4 30940.3 moveto
40895.2 30940.3 lineto
stroke
70.2091 setlinewidth
0 0 0 setrgbcolor
0 0 0 setrgbcolor
newpath
41933.3 31324.8 moveto
42000.1 31324.8 lineto
42067 31291.3 lineto
42100.4 31257.9 lineto
42133.9 31191 lineto
42167.3 31057.3 lineto
42167.3 30890.1 lineto
42133.9 30756.4 lineto
42100.4 30689.5 lineto
42067 30656.1 lineto
42000.1 30622.7 lineto
41933.3 30622.7 lineto
41866.4 30656.1 lineto
41833 30689.5 lineto
41799.5 30756.4 lineto
41766.1 30890.1 lineto
41766.1 31057.3 lineto
41799.5 31191 lineto
41833 31257.9 lineto
41866.4 31291.3 lineto
41933.3 31324.8 lineto
stroke
newpath
42468.2 30689.5 moveto
42501.6 30656.1 lineto
42468.2 30622.7 lineto
42434.8 30656.1 lineto
42468.2 30689.5 lineto
42468.2 30622.7 lineto
stroke
newpath
42735.7 31324.8 moveto
43170.3 31324.8 lineto
42936.3 31057.3 lineto
43036.6 31057.3 lineto
43103.4 31023.9 lineto
43136.9 30990.4 lineto
43170.3 30923.6 lineto
43170.3 30756.4 lineto
43136.9 30689.5 lineto
43103.4 30656.1 lineto
43036.6 30622.7 lineto
42836 30622.7 lineto
42769.1 30656.1 lineto
42735.7 30689.5 lineto
stroke
newpath
43571.5 31023.9 moveto
43504.6 31057.3 lineto
43471.2 31090.7 lineto
43437.8 31157.6 lineto
43437.8 31191 lineto
43471.2 31257.9 lineto
43504.6 31291.3 lineto
43571.5 31324.8 lineto
43705.2 31324.8 lineto
43772.1 31291.3 lineto
43805.5 31257.9 lineto
43838.9 31191 lineto
43838.9 31157.6 lineto
43805.5 31090.7 lineto
43772.1 31057.3 lineto
43705.2 31023.9 lineto
43571.5 31023.9 lineto
43504.6 30990.4 lineto
43471.2 30957 lineto
43437.8 30890.1 lineto
43437.8 30756.4 lineto
43471.2 30689.5 lineto
43504.6 30656.1 lineto
43571.5 30622.7 lineto
43705.2 30622.7 lineto
43772.1 30656.1 lineto
43805.5 30689.5 lineto
43838.9 30756.4 lineto
43838.9 30890.1 lineto
43805.5 30957 lineto
43772.1 30990.4 lineto
43705.2 31023.9 lineto
stroke
newpath
44507.6 30622.7 moveto
44106.4 30622.7 lineto
stroke
newpath
44307 30622.7 moveto
44307 31324.8 lineto
44240.1 31224.5 lineto
44173.3 31157.6 lineto
44106.4 31124.2 lineto
stroke
newpath
44808.5 30622.7 moveto
44808.5 31090.7 lineto
stroke
newpath
44808.5 31023.9 moveto
44841.9 31057.3 lineto
44908.8 31090.7 lineto
45009.1 31090.7 lineto
45076 31057.3 lineto
45109.4 30990.4 lineto
45109.4 30622.7 lineto
stroke
newpath
45109.4 30990.4 moveto
45142.8 31057.3 lineto
45209.7 31090.7 lineto
45310 31090.7 lineto
45376.9 31057.3 lineto
45410.3 30990.4 lineto
45410.3 30622.7 lineto
stroke
newpath
45744.6 30622.7 moveto
45744.6 31090.7 lineto
stroke
newpath
45744.6 31023.9 moveto
45778.1 31057.3 lineto
45844.9 31090.7 lineto
45945.2 31090.7 lineto
46012.1 31057.3 lineto
46045.5 30990.4 lineto
46045.5 30622.7 lineto
stroke
newpath
46045.5 30990.4 moveto
46079 31057.3 lineto
46145.8 31090.7 lineto
46246.1 31090.7 lineto
46313 31057.3 lineto
46346.4 30990.4 lineto
46346.4 30622.7 lineto
stroke
newpath
47717.2 31358.2 moveto
47115.4 30455.5 lineto
stroke
newpath
48619.9 31324.8 moveto
48686.7 31324.8 lineto
48753.6 31291.3 lineto
48787 31257.9 lineto
48820.4 31191 lineto
48853.9 31057.3 lineto
48853.9 30890.1 lineto
48820.4 30756.4 lineto
48787 30689.5 lineto
48753.6 30656.1 lineto
48686.7 30622.7 lineto
48619.9 30622.7 lineto
48553 30656.1 lineto
48519.6 30689.5 lineto
48486.1 30756.4 lineto
48452.7 30890.1 lineto
48452.7 31057.3 lineto
48486.1 31191 lineto
48519.6 31257.9 lineto
48553 31291.3 lineto
48619.9 31324.8 lineto
stroke
newpath
49154.8 30689.5 moveto
49188.2 30656.1 lineto
49154.8 30622.7 lineto
49121.3 30656.1 lineto
49154.8 30689.5 lineto
49154.8 30622.7 lineto
stroke
newpath
49622.8 31324.8 moveto
49689.7 31324.8 lineto
49756.6 31291.3 lineto
49790 31257.9 lineto
49823.4 31191 lineto
49856.9 31057.3 lineto
49856.9 30890.1 lineto
49823.4 30756.4 lineto
49790 30689.5 lineto
49756.6 30656.1 lineto
49689.7 30622.7 lineto
49622.8 30622.7 lineto
49556 30656.1 lineto
49522.5 30689.5 lineto
49489.1 30756.4 lineto
49455.7 30890.1 lineto
49455.7 31057.3 lineto
49489.1 31191 lineto
49522.5 31257.9 lineto
49556 31291.3 lineto
49622.8 31324.8 lineto
stroke
newpath
50525.5 30622.7 moveto
50124.3 30622.7 lineto
stroke
newpath
50324.9 30622.7 moveto
50324.9 31324.8 lineto
50258.1 31224.5 lineto
50191.2 31157.6 lineto
50124.3 31124.2 lineto
stroke
newpath
51160.8 31324.8 moveto
50826.4 31324.8 lineto
50793 30990.4 lineto
50826.4 31023.9 lineto
50893.3 31057.3 lineto
51060.5 31057.3 lineto
51127.3 31023.9 lineto
51160.8 30990.4 lineto
51194.2 30923.6 lineto
51194.2 30756.4 lineto
51160.8 30689.5 lineto
51127.3 30656.1 lineto
51060.5 30622.7 lineto
50893.3 30622.7 lineto
50826.4 30656.1 lineto
50793 30689.5 lineto
stroke
newpath
51628.8 31324.8 moveto
51695.7 31324.8 lineto
51762.5 31291.3 lineto
51796 31257.9 lineto
51829.4 31191 lineto
51862.8 31057.3 lineto
51862.8 30890.1 lineto
51829.4 30756.4 lineto
51796 30689.5 lineto
51762.5 30656.1 lineto
51695.7 30622.7 lineto
51628.8 30622.7 lineto
51561.9 30656.1 lineto
51528.5 30689.5 lineto
51495.1 30756.4 lineto
51461.6 30890.1 lineto
51461.6 31057.3 lineto
51495.1 31191 lineto
51528.5 31257.9 lineto
51561.9 31291.3 lineto
51628.8 31324.8 lineto
stroke
newpath
52130.3 31324.8 moveto
52130.3 31191 lineto
stroke
newpath
52397.8 31324.8 moveto
52397.8 31191 lineto
stroke
newpath
53434.2 30355.2 moveto
53400.8 30388.7 lineto
53333.9 30489 lineto
53300.5 30555.8 lineto
53267 30656.1 lineto
53233.6 30823.3 lineto
53233.6 30957 lineto
53267 31124.2 lineto
53300.5 31224.5 lineto
53333.9 31291.3 lineto
53400.8 31391.6 lineto
53434.2 31425.1 lineto
stroke
newpath
54069.4 30622.7 moveto
53668.2 30622.7 lineto
stroke
newpath
53868.8 30622.7 moveto
53868.8 31324.8 lineto
53801.9 31224.5 lineto
53735.1 31157.6 lineto
53668.2 31124.2 lineto
stroke
newpath
54504 31324.8 moveto
54570.9 31324.8 lineto
54637.8 31291.3 lineto
54671.2 31257.9 lineto
54704.6 31191 lineto
54738.1 31057.3 lineto
54738.1 30890.1 lineto
54704.6 30756.4 lineto
54671.2 30689.5 lineto
54637.8 30656.1 lineto
54570.9 30622.7 lineto
54504 30622.7 lineto
54437.2 30656.1 lineto
54403.7 30689.5 lineto
54370.3 30756.4 lineto
54336.9 30890.1 lineto
54336.9 31057.3 lineto
54370.3 31191 lineto
54403.7 31257.9 lineto
54437.2 31291.3 lineto
54504 31324.8 lineto
stroke
newpath
55573.9 30622.7 moveto
55573.9 31324.8 lineto
stroke
newpath
55874.8 30622.7 moveto
55874.8 30990.4 lineto
55841.4 31057.3 lineto
55774.5 31090.7 lineto
55674.2 31090.7 lineto
55607.3 31057.3 lineto
55573.9 31023.9 lineto
stroke
newpath
56309.4 30622.7 moveto
56242.5 30656.1 lineto
56209.1 30689.5 lineto
56175.7 30756.4 lineto
56175.7 30957 lineto
56209.1 31023.9 lineto
56242.5 31057.3 lineto
56309.4 31090.7 lineto
56409.7 31090.7 lineto
56476.6 31057.3 lineto
56510 31023.9 lineto
56543.4 30957 lineto
56543.4 30756.4 lineto
56510 30689.5 lineto
56476.6 30656.1 lineto
56409.7 30622.7 lineto
56309.4 30622.7 lineto
stroke
newpath
56944.6 30622.7 moveto
56877.8 30656.1 lineto
56844.3 30723 lineto
56844.3 31324.8 lineto
stroke
newpath
57479.6 30656.1 moveto
57412.7 30622.7 lineto
57279 30622.7 lineto
57212.1 30656.1 lineto
57178.7 30723 lineto
57178.7 30990.4 lineto
57212.1 31057.3 lineto
57279 31090.7 lineto
57412.7 31090.7 lineto
57479.6 31057.3 lineto
57513 30990.4 lineto
57513 30923.6 lineto
57178.7 30856.7 lineto
stroke
newpath
57780.5 30656.1 moveto
57847.3 30622.7 lineto
57981.1 30622.7 lineto
58047.9 30656.1 lineto
58081.4 30723 lineto
58081.4 30756.4 lineto
58047.9 30823.3 lineto
57981.1 30856.7 lineto
57880.8 30856.7 lineto
57813.9 30890.1 lineto
57780.5 30957 lineto
57780.5 30990.4 lineto
57813.9 31057.3 lineto
57880.8 31090.7 lineto
57981.1 31090.7 lineto
58047.9 31057.3 lineto
stroke
newpath
58315.4 30355.2 moveto
58348.8 30388.7 lineto
58415.7 30489 lineto
58449.1 30555.8 lineto
58482.6 30656.1 lineto
58516 30823.3 lineto
58516 30957 lineto
58482.6 31124.2 lineto
58449.1 31224.5 lineto
58415.7 31291.3 lineto
58348.8 31391.6 lineto
58315.4 31425.1 lineto
stroke
31.5646 setlinewidth
newpath
40849 29901.9 moveto
40849 30125.1 lineto
40625.8 30125.1 lineto
40625.8 29901.9 lineto
40849 29901.9 lineto
poly0
70.2091 setlinewidth
0 0 0 setrgbcolor
0 0 0 setrgbcolor
newpath
41933.3 30398 moveto
42000.1 30398 lineto
42067 30364.6 lineto
42100.4 30331.1 lineto
42133.9 30264.3 lineto
42167.3 30130.6 lineto
42167.3 29963.4 lineto
42133.9 29829.7 lineto
42100.4 29762.8 lineto
42067 29729.4 lineto
42000.1 29695.9 lineto
41933.3 29695.9 lineto
41866.4 29729.4 lineto
41833 29762.8 lineto
41799.5 29829.7 lineto
41766.1 29963.4 lineto
41766.1 30130.6 lineto
41799.5 30264.3 lineto
41833 30331.1 lineto
41866.4 30364.6 lineto
41933.3 30398 lineto
stroke
newpath
42468.2 29762.8 moveto
42501.6 29729.4 lineto
42468.2 29695.9 lineto
42434.8 29729.4 lineto
42468.2 29762.8 lineto
42468.2 29695.9 lineto
stroke
newpath
42902.8 30097.1 moveto
42836 30130.6 lineto
42802.5 30164 lineto
42769.1 30230.8 lineto
42769.1 30264.3 lineto
42802.5 30331.1 lineto
42836 30364.6 lineto
42902.8 30398 lineto
43036.6 30398 lineto
43103.4 30364.6 lineto
43136.9 30331.1 lineto
43170.3 30264.3 lineto
43170.3 30230.8 lineto
43136.9 30164 lineto
43103.4 30130.6 lineto
43036.6 30097.1 lineto
42902.8 30097.1 lineto
42836 30063.7 lineto
42802.5 30030.3 lineto
42769.1 29963.4 lineto
42769.1 29829.7 lineto
42802.5 29762.8 lineto
42836 29729.4 lineto
42902.8 29695.9 lineto
43036.6 29695.9 lineto
43103.4 29729.4 lineto
43136.9 29762.8 lineto
43170.3 29829.7 lineto
43170.3 29963.4 lineto
43136.9 30030.3 lineto
43103.4 30063.7 lineto
43036.6 30097.1 lineto
stroke
newpath
43504.6 29695.9 moveto
43638.4 29695.9 lineto
43705.2 29729.4 lineto
43738.6 29762.8 lineto
43805.5 29863.1 lineto
43838.9 29996.8 lineto
43838.9 30264.3 lineto
43805.5 30331.1 lineto
43772.1 30364.6 lineto
43705.2 30398 lineto
43571.5 30398 lineto
43504.6 30364.6 lineto
43471.2 30331.1 lineto
43437.8 30264.3 lineto
43437.8 30097.1 lineto
43471.2 30030.3 lineto
43504.6 29996.8 lineto
43571.5 29963.4 lineto
43705.2 29963.4 lineto
43772.1 29996.8 lineto
43805.5 30030.3 lineto
43838.9 30097.1 lineto
stroke
newpath
44173.3 29695.9 moveto
44307 29695.9 lineto
44373.9 29729.4 lineto
44407.3 29762.8 lineto
44474.2 29863.1 lineto
44507.6 29996.8 lineto
44507.6 30264.3 lineto
44474.2 30331.1 lineto
44440.7 30364.6 lineto
44373.9 30398 lineto
44240.1 30398 lineto
44173.3 30364.6 lineto
44139.8 30331.1 lineto
44106.4 30264.3 lineto
44106.4 30097.1 lineto
44139.8 30030.3 lineto
44173.3 29996.8 lineto
44240.1 29963.4 lineto
44373.9 29963.4 lineto
44440.7 29996.8 lineto
44474.2 30030.3 lineto
44507.6 30097.1 lineto
stroke
newpath
44808.5 29695.9 moveto
44808.5 30164 lineto
stroke
newpath
44808.5 30097.1 moveto
44841.9 30130.6 lineto
44908.8 30164 lineto
45009.1 30164 lineto
45076 30130.6 lineto
45109.4 30063.7 lineto
45109.4 29695.9 lineto
stroke
newpath
45109.4 30063.7 moveto
45142.8 30130.6 lineto
45209.7 30164 lineto
45310 30164 lineto
45376.9 30130.6 lineto
45410.3 30063.7 lineto
45410.3 29695.9 lineto
stroke
newpath
45744.6 29695.9 moveto
45744.6 30164 lineto
stroke
newpath
45744.6 30097.1 moveto
45778.1 30130.6 lineto
45844.9 30164 lineto
45945.2 30164 lineto
46012.1 30130.6 lineto
46045.5 30063.7 lineto
46045.5 29695.9 lineto
stroke
newpath
46045.5 30063.7 moveto
46079 30130.6 lineto
46145.8 30164 lineto
46246.1 30164 lineto
46313 30130.6 lineto
46346.4 30063.7 lineto
46346.4 29695.9 lineto
stroke
newpath
47717.2 30431.4 moveto
47115.4 29528.8 lineto
stroke
newpath
48619.9 30398 moveto
48686.7 30398 lineto
48753.6 30364.6 lineto
48787 30331.1 lineto
48820.4 30264.3 lineto
48853.9 30130.6 lineto
48853.9 29963.4 lineto
48820.4 29829.7 lineto
48787 29762.8 lineto
48753.6 29729.4 lineto
48686.7 29695.9 lineto
48619.9 29695.9 lineto
48553 29729.4 lineto
48519.6 29762.8 lineto
48486.1 29829.7 lineto
48452.7 29963.4 lineto
48452.7 30130.6 lineto
48486.1 30264.3 lineto
48519.6 30331.1 lineto
48553 30364.6 lineto
48619.9 30398 lineto
stroke
newpath
49154.8 29762.8 moveto
49188.2 29729.4 lineto
49154.8 29695.9 lineto
49121.3 29729.4 lineto
49154.8 29762.8 lineto
49154.8 29695.9 lineto
stroke
newpath
49622.8 30398 moveto
49689.7 30398 lineto
49756.6 30364.6 lineto
49790 30331.1 lineto
49823.4 30264.3 lineto
49856.9 30130.6 lineto
49856.9 29963.4 lineto
49823.4 29829.7 lineto
49790 29762.8 lineto
49756.6 29729.4 lineto
49689.7 29695.9 lineto
49622.8 29695.9 lineto
49556 29729.4 lineto
49522.5 29762.8 lineto
49489.1 29829.7 lineto
49455.7 29963.4 lineto
49455.7 30130.6 lineto
49489.1 30264.3 lineto
49522.5 30331.1 lineto
49556 30364.6 lineto
49622.8 30398 lineto
stroke
newpath
50090.9 30398 moveto
50525.5 30398 lineto
50291.5 30130.6 lineto
50391.8 30130.6 lineto
50458.7 30097.1 lineto
50492.1 30063.7 lineto
50525.5 29996.8 lineto
50525.5 29829.7 lineto
50492.1 29762.8 lineto
50458.7 29729.4 lineto
50391.8 29695.9 lineto
50191.2 29695.9 lineto
50124.3 29729.4 lineto
50090.9 29762.8 lineto
stroke
newpath
51160.8 30398 moveto
50826.4 30398 lineto
50793 30063.7 lineto
50826.4 30097.1 lineto
50893.3 30130.6 lineto
51060.5 30130.6 lineto
51127.3 30097.1 lineto
51160.8 30063.7 lineto
51194.2 29996.8 lineto
51194.2 29829.7 lineto
51160.8 29762.8 lineto
51127.3 29729.4 lineto
51060.5 29695.9 lineto
50893.3 29695.9 lineto
50826.4 29729.4 lineto
50793 29762.8 lineto
stroke
newpath
51796 30164 moveto
51796 29695.9 lineto
stroke
newpath
51628.8 30431.4 moveto
51461.6 29930 lineto
51896.3 29930 lineto
stroke
newpath
52130.3 30398 moveto
52130.3 30264.3 lineto
stroke
newpath
52397.8 30398 moveto
52397.8 30264.3 lineto
stroke
newpath
53434.2 29428.5 moveto
53400.8 29461.9 lineto
53333.9 29562.2 lineto
53300.5 29629.1 lineto
53267 29729.4 lineto
53233.6 29896.5 lineto
53233.6 30030.3 lineto
53267 30197.4 lineto
53300.5 30297.7 lineto
53333.9 30364.6 lineto
53400.8 30464.9 lineto
53434.2 30498.3 lineto
stroke
newpath
54069.4 29695.9 moveto
53668.2 29695.9 lineto
stroke
newpath
53868.8 29695.9 moveto
53868.8 30398 lineto
53801.9 30297.7 lineto
53735.1 30230.8 lineto
53668.2 30197.4 lineto
stroke
newpath
54303.4 30398 moveto
54738.1 30398 lineto
54504 30130.6 lineto
54604.3 30130.6 lineto
54671.2 30097.1 lineto
54704.6 30063.7 lineto
54738.1 29996.8 lineto
54738.1 29829.7 lineto
54704.6 29762.8 lineto
54671.2 29729.4 lineto
54604.3 29695.9 lineto
54403.7 29695.9 lineto
54336.9 29729.4 lineto
54303.4 29762.8 lineto
stroke
newpath
55373.3 30398 moveto
55039 30398 lineto
55005.5 30063.7 lineto
55039 30097.1 lineto
55105.8 30130.6 lineto
55273 30130.6 lineto
55339.9 30097.1 lineto
55373.3 30063.7 lineto
55406.7 29996.8 lineto
55406.7 29829.7 lineto
55373.3 29762.8 lineto
55339.9 29729.4 lineto
55273 29695.9 lineto
55105.8 29695.9 lineto
55039 29729.4 lineto
55005.5 29762.8 lineto
stroke
newpath
56242.5 29695.9 moveto
56242.5 30398 lineto
stroke
newpath
56543.4 29695.9 moveto
56543.4 30063.7 lineto
56510 30130.6 lineto
56443.1 30164 lineto
56342.8 30164 lineto
56276 30130.6 lineto
56242.5 30097.1 lineto
stroke
newpath
56978.1 29695.9 moveto
56911.2 29729.4 lineto
56877.8 29762.8 lineto
56844.3 29829.7 lineto
56844.3 30030.3 lineto
56877.8 30097.1 lineto
56911.2 30130.6 lineto
56978.1 30164 lineto
57078.4 30164 lineto
57145.2 30130.6 lineto
57178.7 30097.1 lineto
57212.1 30030.3 lineto
57212.1 29829.7 lineto
57178.7 29762.8 lineto
57145.2 29729.4 lineto
57078.4 29695.9 lineto
56978.1 29695.9 lineto
stroke
newpath
57613.3 29695.9 moveto
57546.4 29729.4 lineto
57513 29796.2 lineto
57513 30398 lineto
stroke
newpath
58148.2 29729.4 moveto
58081.4 29695.9 lineto
57947.6 29695.9 lineto
57880.8 29729.4 lineto
57847.3 29796.2 lineto
57847.3 30063.7 lineto
57880.8 30130.6 lineto
57947.6 30164 lineto
58081.4 30164 lineto
58148.2 30130.6 lineto
58181.7 30063.7 lineto
58181.7 29996.8 lineto
57847.3 29930 lineto
stroke
newpath
58449.1 29729.4 moveto
58516 29695.9 lineto
58649.7 29695.9 lineto
58716.6 29729.4 lineto
58750 29796.2 lineto
58750 29829.7 lineto
58716.6 29896.5 lineto
58649.7 29930 lineto
58549.4 29930 lineto
58482.6 29963.4 lineto
58449.1 30030.3 lineto
58449.1 30063.7 lineto
58482.6 30130.6 lineto
58549.4 30164 lineto
58649.7 30164 lineto
58716.6 30130.6 lineto
stroke
newpath
58984 29428.5 moveto
59017.5 29461.9 lineto
59084.3 29562.2 lineto
59117.8 29629.1 lineto
59151.2 29729.4 lineto
59184.6 29896.5 lineto
59184.6 30030.3 lineto
59151.2 30197.4 lineto
59117.8 30297.7 lineto
59084.3 30364.6 lineto
59017.5 30464.9 lineto
58984 30498.3 lineto
stroke
52.6568 setlinewidth
newpath
40631.9 28823.5 moveto
40895.2 29086.8 lineto
40631.9 29350.1 lineto
40368.6 29086.8 lineto
40631.9 28823.5 lineto
poly0
70.2091 setlinewidth
0 0 0 setrgbcolor
0 0 0 setrgbcolor
newpath
42167.3 28769.2 moveto
41766.1 28769.2 lineto
stroke
newpath
41966.7 28769.2 moveto
41966.7 29471.3 lineto
41899.8 29371 lineto
41833 29304.1 lineto
41766.1 29270.7 lineto
stroke
newpath
42468.2 28836 moveto
42501.6 28802.6 lineto
42468.2 28769.2 lineto
42434.8 28802.6 lineto
42468.2 28836 lineto
42468.2 28769.2 lineto
stroke
newpath
43136.9 29471.3 moveto
42802.5 29471.3 lineto
42769.1 29136.9 lineto
42802.5 29170.4 lineto
42869.4 29203.8 lineto
43036.6 29203.8 lineto
43103.4 29170.4 lineto
43136.9 29136.9 lineto
43170.3 29070.1 lineto
43170.3 28902.9 lineto
43136.9 28836 lineto
43103.4 28802.6 lineto
43036.6 28769.2 lineto
42869.4 28769.2 lineto
42802.5 28802.6 lineto
42769.1 28836 lineto
stroke
newpath
43604.9 29471.3 moveto
43671.8 29471.3 lineto
43738.6 29437.8 lineto
43772.1 29404.4 lineto
43805.5 29337.5 lineto
43838.9 29203.8 lineto
43838.9 29036.6 lineto
43805.5 28902.9 lineto
43772.1 28836 lineto
43738.6 28802.6 lineto
43671.8 28769.2 lineto
43604.9 28769.2 lineto
43538.1 28802.6 lineto
43504.6 28836 lineto
43471.2 28902.9 lineto
43437.8 29036.6 lineto
43437.8 29203.8 lineto
43471.2 29337.5 lineto
43504.6 29404.4 lineto
43538.1 29437.8 lineto
43604.9 29471.3 lineto
stroke
newpath
44273.6 29471.3 moveto
44340.4 29471.3 lineto
44407.3 29437.8 lineto
44440.7 29404.4 lineto
44474.2 29337.5 lineto
44507.6 29203.8 lineto
44507.6 29036.6 lineto
44474.2 28902.9 lineto
44440.7 28836 lineto
44407.3 28802.6 lineto
44340.4 28769.2 lineto
44273.6 28769.2 lineto
44206.7 28802.6 lineto
44173.3 28836 lineto
44139.8 28902.9 lineto
44106.4 29036.6 lineto
44106.4 29203.8 lineto
44139.8 29337.5 lineto
44173.3 29404.4 lineto
44206.7 29437.8 lineto
44273.6 29471.3 lineto
stroke
newpath
44808.5 28769.2 moveto
44808.5 29237.2 lineto
stroke
newpath
44808.5 29170.4 moveto
44841.9 29203.8 lineto
44908.8 29237.2 lineto
45009.1 29237.2 lineto
45076 29203.8 lineto
45109.4 29136.9 lineto
45109.4 28769.2 lineto
stroke
newpath
45109.4 29136.9 moveto
45142.8 29203.8 lineto
45209.7 29237.2 lineto
45310 29237.2 lineto
45376.9 29203.8 lineto
45410.3 29136.9 lineto
45410.3 28769.2 lineto
stroke
newpath
45744.6 28769.2 moveto
45744.6 29237.2 lineto
stroke
newpath
45744.6 29170.4 moveto
45778.1 29203.8 lineto
45844.9 29237.2 lineto
45945.2 29237.2 lineto
46012.1 29203.8 lineto
46045.5 29136.9 lineto
46045.5 28769.2 lineto
stroke
newpath
46045.5 29136.9 moveto
46079 29203.8 lineto
46145.8 29237.2 lineto
46246.1 29237.2 lineto
46313 29203.8 lineto
46346.4 29136.9 lineto
46346.4 28769.2 lineto
stroke
newpath
47717.2 29504.7 moveto
47115.4 28602 lineto
stroke
newpath
48619.9 29471.3 moveto
48686.7 29471.3 lineto
48753.6 29437.8 lineto
48787 29404.4 lineto
48820.4 29337.5 lineto
48853.9 29203.8 lineto
48853.9 29036.6 lineto
48820.4 28902.9 lineto
48787 28836 lineto
48753.6 28802.6 lineto
48686.7 28769.2 lineto
48619.9 28769.2 lineto
48553 28802.6 lineto
48519.6 28836 lineto
48486.1 28902.9 lineto
48452.7 29036.6 lineto
48452.7 29203.8 lineto
48486.1 29337.5 lineto
48519.6 29404.4 lineto
48553 29437.8 lineto
48619.9 29471.3 lineto
stroke
newpath
49154.8 28836 moveto
49188.2 28802.6 lineto
49154.8 28769.2 lineto
49121.3 28802.6 lineto
49154.8 28836 lineto
49154.8 28769.2 lineto
stroke
newpath
49622.8 29471.3 moveto
49689.7 29471.3 lineto
49756.6 29437.8 lineto
49790 29404.4 lineto
49823.4 29337.5 lineto
49856.9 29203.8 lineto
49856.9 29036.6 lineto
49823.4 28902.9 lineto
49790 28836 lineto
49756.6 28802.6 lineto
49689.7 28769.2 lineto
49622.8 28769.2 lineto
49556 28802.6 lineto
49522.5 28836 lineto
49489.1 28902.9 lineto
49455.7 29036.6 lineto
49455.7 29203.8 lineto
49489.1 29337.5 lineto
49522.5 29404.4 lineto
49556 29437.8 lineto
49622.8 29471.3 lineto
stroke
newpath
50492.1 29471.3 moveto
50157.8 29471.3 lineto
50124.3 29136.9 lineto
50157.8 29170.4 lineto
50224.6 29203.8 lineto
50391.8 29203.8 lineto
50458.7 29170.4 lineto
50492.1 29136.9 lineto
50525.5 29070.1 lineto
50525.5 28902.9 lineto
50492.1 28836 lineto
50458.7 28802.6 lineto
50391.8 28769.2 lineto
50224.6 28769.2 lineto
50157.8 28802.6 lineto
50124.3 28836 lineto
stroke
newpath
50859.9 28769.2 moveto
50993.6 28769.2 lineto
51060.5 28802.6 lineto
51093.9 28836 lineto
51160.8 28936.3 lineto
51194.2 29070.1 lineto
51194.2 29337.5 lineto
51160.8 29404.4 lineto
51127.3 29437.8 lineto
51060.5 29471.3 lineto
50926.7 29471.3 lineto
50859.9 29437.8 lineto
50826.4 29404.4 lineto
50793 29337.5 lineto
50793 29170.4 lineto
50826.4 29103.5 lineto
50859.9 29070.1 lineto
50926.7 29036.6 lineto
51060.5 29036.6 lineto
51127.3 29070.1 lineto
51160.8 29103.5 lineto
51194.2 29170.4 lineto
stroke
newpath
51862.8 28769.2 moveto
51461.6 28769.2 lineto
stroke
newpath
51662.2 28769.2 moveto
51662.2 29471.3 lineto
51595.4 29371 lineto
51528.5 29304.1 lineto
51461.6 29270.7 lineto
stroke
newpath
52130.3 29471.3 moveto
52130.3 29337.5 lineto
stroke
newpath
52397.8 29471.3 moveto
52397.8 29337.5 lineto
stroke
newpath
53434.2 28501.7 moveto
53400.8 28535.1 lineto
53333.9 28635.4 lineto
53300.5 28702.3 lineto
53267 28802.6 lineto
53233.6 28969.8 lineto
53233.6 29103.5 lineto
53267 29270.7 lineto
53300.5 29371 lineto
53333.9 29437.8 lineto
53400.8 29538.1 lineto
53434.2 29571.6 lineto
stroke
newpath
53668.2 29404.4 moveto
53701.6 29437.8 lineto
53768.5 29471.3 lineto
53935.7 29471.3 lineto
54002.5 29437.8 lineto
54036 29404.4 lineto
54069.4 29337.5 lineto
54069.4 29270.7 lineto
54036 29170.4 lineto
53634.8 28769.2 lineto
54069.4 28769.2 lineto
stroke
newpath
54905.2 28769.2 moveto
54905.2 29471.3 lineto
stroke
newpath
55206.1 28769.2 moveto
55206.1 29136.9 lineto
55172.7 29203.8 lineto
55105.8 29237.2 lineto
55005.5 29237.2 lineto
54938.7 29203.8 lineto
54905.2 29170.4 lineto
stroke
newpath
55640.8 28769.2 moveto
55573.9 28802.6 lineto
55540.5 28836 lineto
55507 28902.9 lineto
55507 29103.5 lineto
55540.5 29170.4 lineto
55573.9 29203.8 lineto
55640.8 29237.2 lineto
55741.1 29237.2 lineto
55807.9 29203.8 lineto
55841.4 29170.4 lineto
55874.8 29103.5 lineto
55874.8 28902.9 lineto
55841.4 28836 lineto
55807.9 28802.6 lineto
55741.1 28769.2 lineto
55640.8 28769.2 lineto
stroke
newpath
56276 28769.2 moveto
56209.1 28802.6 lineto
56175.7 28869.5 lineto
56175.7 29471.3 lineto
stroke
newpath
56810.9 28802.6 moveto
56744 28769.2 lineto
56610.3 28769.2 lineto
56543.4 28802.6 lineto
56510 28869.5 lineto
56510 29136.9 lineto
56543.4 29203.8 lineto
56610.3 29237.2 lineto
56744 29237.2 lineto
56810.9 29203.8 lineto
56844.3 29136.9 lineto
56844.3 29070.1 lineto
56510 29003.2 lineto
stroke
newpath
57111.8 28802.6 moveto
57178.7 28769.2 lineto
57312.4 28769.2 lineto
57379.3 28802.6 lineto
57412.7 28869.5 lineto
57412.7 28902.9 lineto
57379.3 28969.8 lineto
57312.4 29003.2 lineto
57212.1 29003.2 lineto
57145.2 29036.6 lineto
57111.8 29103.5 lineto
57111.8 29136.9 lineto
57145.2 29203.8 lineto
57212.1 29237.2 lineto
57312.4 29237.2 lineto
57379.3 29203.8 lineto
stroke
newpath
57646.7 28501.7 moveto
57680.2 28535.1 lineto
57747 28635.4 lineto
57780.5 28702.3 lineto
57813.9 28802.6 lineto
57847.3 28969.8 lineto
57847.3 29103.5 lineto
57813.9 29270.7 lineto
57780.5 29371 lineto
57747 29437.8 lineto
57680.2 29538.1 lineto
57646.7 29571.6 lineto
stroke
59.6777 setlinewidth
newpath
40298.4 28394.7 moveto
40895.2 27797.9 lineto
stroke
newpath
40895.2 28394.7 moveto
40298.4 27797.9 lineto
stroke
40596.8 28096.3 298.388 cir0
70.2091 setlinewidth
0 0 0 setrgbcolor
0 0 0 setrgbcolor
newpath
42167.3 27778.7 moveto
41766.1 27778.7 lineto
stroke
newpath
41966.7 27778.7 moveto
41966.7 28480.8 lineto
41899.8 28380.5 lineto
41833 28313.6 lineto
41766.1 28280.2 lineto
stroke
newpath
42468.2 27845.6 moveto
42501.6 27812.1 lineto
42468.2 27778.7 lineto
42434.8 27812.1 lineto
42468.2 27845.6 lineto
42468.2 27778.7 lineto
stroke
newpath
42735.7 28480.8 moveto
43203.7 28480.8 lineto
42902.8 27778.7 lineto
stroke
newpath
43604.9 28480.8 moveto
43671.8 28480.8 lineto
43738.6 28447.3 lineto
43772.1 28413.9 lineto
43805.5 28347 lineto
43838.9 28213.3 lineto
43838.9 28046.1 lineto
43805.5 27912.4 lineto
43772.1 27845.6 lineto
43738.6 27812.1 lineto
43671.8 27778.7 lineto
43604.9 27778.7 lineto
43538.1 27812.1 lineto
43504.6 27845.6 lineto
43471.2 27912.4 lineto
43437.8 28046.1 lineto
43437.8 28213.3 lineto
43471.2 28347 lineto
43504.6 28413.9 lineto
43538.1 28447.3 lineto
43604.9 28480.8 lineto
stroke
newpath
44273.6 28480.8 moveto
44340.4 28480.8 lineto
44407.3 28447.3 lineto
44440.7 28413.9 lineto
44474.2 28347 lineto
44507.6 28213.3 lineto
44507.6 28046.1 lineto
44474.2 27912.4 lineto
44440.7 27845.6 lineto
44407.3 27812.1 lineto
44340.4 27778.7 lineto
44273.6 27778.7 lineto
44206.7 27812.1 lineto
44173.3 27845.6 lineto
44139.8 27912.4 lineto
44106.4 28046.1 lineto
44106.4 28213.3 lineto
44139.8 28347 lineto
44173.3 28413.9 lineto
44206.7 28447.3 lineto
44273.6 28480.8 lineto
stroke
newpath
44808.5 27778.7 moveto
44808.5 28246.7 lineto
stroke
newpath
44808.5 28179.9 moveto
44841.9 28213.3 lineto
44908.8 28246.7 lineto
45009.1 28246.7 lineto
45076 28213.3 lineto
45109.4 28146.4 lineto
45109.4 27778.7 lineto
stroke
newpath
45109.4 28146.4 moveto
45142.8 28213.3 lineto
45209.7 28246.7 lineto
45310 28246.7 lineto
45376.9 28213.3 lineto
45410.3 28146.4 lineto
45410.3 27778.7 lineto
stroke
newpath
45744.6 27778.7 moveto
45744.6 28246.7 lineto
stroke
newpath
45744.6 28179.9 moveto
45778.1 28213.3 lineto
45844.9 28246.7 lineto
45945.2 28246.7 lineto
46012.1 28213.3 lineto
46045.5 28146.4 lineto
46045.5 27778.7 lineto
stroke
newpath
46045.5 28146.4 moveto
46079 28213.3 lineto
46145.8 28246.7 lineto
46246.1 28246.7 lineto
46313 28213.3 lineto
46346.4 28146.4 lineto
46346.4 27778.7 lineto
stroke
newpath
47717.2 28514.2 moveto
47115.4 27611.5 lineto
stroke
newpath
48619.9 28480.8 moveto
48686.7 28480.8 lineto
48753.6 28447.3 lineto
48787 28413.9 lineto
48820.4 28347 lineto
48853.9 28213.3 lineto
48853.9 28046.1 lineto
48820.4 27912.4 lineto
48787 27845.6 lineto
48753.6 27812.1 lineto
48686.7 27778.7 lineto
48619.9 27778.7 lineto
48553 27812.1 lineto
48519.6 27845.6 lineto
48486.1 27912.4 lineto
48452.7 28046.1 lineto
48452.7 28213.3 lineto
48486.1 28347 lineto
48519.6 28413.9 lineto
48553 28447.3 lineto
48619.9 28480.8 lineto
stroke
newpath
49154.8 27845.6 moveto
49188.2 27812.1 lineto
49154.8 27778.7 lineto
49121.3 27812.1 lineto
49154.8 27845.6 lineto
49154.8 27778.7 lineto
stroke
newpath
49622.8 28480.8 moveto
49689.7 28480.8 lineto
49756.6 28447.3 lineto
49790 28413.9 lineto
49823.4 28347 lineto
49856.9 28213.3 lineto
49856.9 28046.1 lineto
49823.4 27912.4 lineto
49790 27845.6 lineto
49756.6 27812.1 lineto
49689.7 27778.7 lineto
49622.8 27778.7 lineto
49556 27812.1 lineto
49522.5 27845.6 lineto
49489.1 27912.4 lineto
49455.7 28046.1 lineto
49455.7 28213.3 lineto
49489.1 28347 lineto
49522.5 28413.9 lineto
49556 28447.3 lineto
49622.8 28480.8 lineto
stroke
newpath
50458.7 28480.8 moveto
50324.9 28480.8 lineto
50258.1 28447.3 lineto
50224.6 28413.9 lineto
50157.8 28313.6 lineto
50124.3 28179.9 lineto
50124.3 27912.4 lineto
50157.8 27845.6 lineto
50191.2 27812.1 lineto
50258.1 27778.7 lineto
50391.8 27778.7 lineto
50458.7 27812.1 lineto
50492.1 27845.6 lineto
50525.5 27912.4 lineto
50525.5 28079.6 lineto
50492.1 28146.4 lineto
50458.7 28179.9 lineto
50391.8 28213.3 lineto
50258.1 28213.3 lineto
50191.2 28179.9 lineto
50157.8 28146.4 lineto
50124.3 28079.6 lineto
stroke
newpath
51127.3 28480.8 moveto
50993.6 28480.8 lineto
50926.7 28447.3 lineto
50893.3 28413.9 lineto
50826.4 28313.6 lineto
50793 28179.9 lineto
50793 27912.4 lineto
50826.4 27845.6 lineto
50859.9 27812.1 lineto
50926.7 27778.7 lineto
51060.5 27778.7 lineto
51127.3 27812.1 lineto
51160.8 27845.6 lineto
51194.2 27912.4 lineto
51194.2 28079.6 lineto
51160.8 28146.4 lineto
51127.3 28179.9 lineto
51060.5 28213.3 lineto
50926.7 28213.3 lineto
50859.9 28179.9 lineto
50826.4 28146.4 lineto
50793 28079.6 lineto
stroke
newpath
51528.5 27778.7 moveto
51662.2 27778.7 lineto
51729.1 27812.1 lineto
51762.5 27845.6 lineto
51829.4 27945.9 lineto
51862.8 28079.6 lineto
51862.8 28347 lineto
51829.4 28413.9 lineto
51796 28447.3 lineto
51729.1 28480.8 lineto
51595.4 28480.8 lineto
51528.5 28447.3 lineto
51495.1 28413.9 lineto
51461.6 28347 lineto
51461.6 28179.9 lineto
51495.1 28113 lineto
51528.5 28079.6 lineto
51595.4 28046.1 lineto
51729.1 28046.1 lineto
51796 28079.6 lineto
51829.4 28113 lineto
51862.8 28179.9 lineto
stroke
newpath
52130.3 28480.8 moveto
52130.3 28347 lineto
stroke
newpath
52397.8 28480.8 moveto
52397.8 28347 lineto
stroke
newpath
53434.2 27511.2 moveto
53400.8 27544.7 lineto
53333.9 27645 lineto
53300.5 27711.8 lineto
53267 27812.1 lineto
53233.6 27979.3 lineto
53233.6 28113 lineto
53267 28280.2 lineto
53300.5 28380.5 lineto
53333.9 28447.3 lineto
53400.8 28547.6 lineto
53434.2 28581.1 lineto
stroke
newpath
53801.9 28179.9 moveto
53735.1 28213.3 lineto
53701.6 28246.7 lineto
53668.2 28313.6 lineto
53668.2 28347 lineto
53701.6 28413.9 lineto
53735.1 28447.3 lineto
53801.9 28480.8 lineto
53935.7 28480.8 lineto
54002.5 28447.3 lineto
54036 28413.9 lineto
54069.4 28347 lineto
54069.4 28313.6 lineto
54036 28246.7 lineto
54002.5 28213.3 lineto
53935.7 28179.9 lineto
53801.9 28179.9 lineto
53735.1 28146.4 lineto
53701.6 28113 lineto
53668.2 28046.1 lineto
53668.2 27912.4 lineto
53701.6 27845.6 lineto
53735.1 27812.1 lineto
53801.9 27778.7 lineto
53935.7 27778.7 lineto
54002.5 27812.1 lineto
54036 27845.6 lineto
54069.4 27912.4 lineto
54069.4 28046.1 lineto
54036 28113 lineto
54002.5 28146.4 lineto
53935.7 28179.9 lineto
stroke
newpath
54905.2 27778.7 moveto
54905.2 28480.8 lineto
stroke
newpath
55206.1 27778.7 moveto
55206.1 28146.4 lineto
55172.7 28213.3 lineto
55105.8 28246.7 lineto
55005.5 28246.7 lineto
54938.7 28213.3 lineto
54905.2 28179.9 lineto
stroke
newpath
55640.8 27778.7 moveto
55573.9 27812.1 lineto
55540.5 27845.6 lineto
55507 27912.4 lineto
55507 28113 lineto
55540.5 28179.9 lineto
55573.9 28213.3 lineto
55640.8 28246.7 lineto
55741.1 28246.7 lineto
55807.9 28213.3 lineto
55841.4 28179.9 lineto
55874.8 28113 lineto
55874.8 27912.4 lineto
55841.4 27845.6 lineto
55807.9 27812.1 lineto
55741.1 27778.7 lineto
55640.8 27778.7 lineto
stroke
newpath
56276 27778.7 moveto
56209.1 27812.1 lineto
56175.7 27879 lineto
56175.7 28480.8 lineto
stroke
newpath
56810.9 27812.1 moveto
56744 27778.7 lineto
56610.3 27778.7 lineto
56543.4 27812.1 lineto
56510 27879 lineto
56510 28146.4 lineto
56543.4 28213.3 lineto
56610.3 28246.7 lineto
56744 28246.7 lineto
56810.9 28213.3 lineto
56844.3 28146.4 lineto
56844.3 28079.6 lineto
56510 28012.7 lineto
stroke
newpath
57111.8 27812.1 moveto
57178.7 27778.7 lineto
57312.4 27778.7 lineto
57379.3 27812.1 lineto
57412.7 27879 lineto
57412.7 27912.4 lineto
57379.3 27979.3 lineto
57312.4 28012.7 lineto
57212.1 28012.7 lineto
57145.2 28046.1 lineto
57111.8 28113 lineto
57111.8 28146.4 lineto
57145.2 28213.3 lineto
57212.1 28246.7 lineto
57312.4 28246.7 lineto
57379.3 28213.3 lineto
stroke
newpath
57646.7 27511.2 moveto
57680.2 27544.7 lineto
57747 27645 lineto
57780.5 27711.8 lineto
57813.9 27812.1 lineto
57847.3 27979.3 lineto
57847.3 28113 lineto
57813.9 28280.2 lineto
57780.5 28380.5 lineto
57747 28447.3 lineto
57680.2 28547.6 lineto
57646.7 28581.1 lineto
stroke
63.1882 setlinewidth
newpath
40263.3 27351.6 moveto
40895.2 26719.7 lineto
stroke
newpath
40895.2 27351.6 moveto
40263.3 26719.7 lineto
stroke
newpath
40579.2 27351.6 moveto
40579.2 26719.7 lineto
stroke
newpath
40263.3 27035.6 moveto
40895.2 27035.6 lineto
stroke
70.2091 setlinewidth
0 0 0 setrgbcolor
0 0 0 setrgbcolor
newpath
42167.3 26718 moveto
41766.1 26718 lineto
stroke
newpath
41966.7 26718 moveto
41966.7 27420.1 lineto
41899.8 27319.8 lineto
41833 27252.9 lineto
41766.1 27219.5 lineto
stroke
newpath
42468.2 26784.9 moveto
42501.6 26751.4 lineto
42468.2 26718 lineto
42434.8 26751.4 lineto
42468.2 26784.9 lineto
42468.2 26718 lineto
stroke
newpath
42902.8 27119.2 moveto
42836 27152.6 lineto
42802.5 27186.1 lineto
42769.1 27252.9 lineto
42769.1 27286.4 lineto
42802.5 27353.2 lineto
42836 27386.7 lineto
42902.8 27420.1 lineto
43036.6 27420.1 lineto
43103.4 27386.7 lineto
43136.9 27353.2 lineto
43170.3 27286.4 lineto
43170.3 27252.9 lineto
43136.9 27186.1 lineto
43103.4 27152.6 lineto
43036.6 27119.2 lineto
42902.8 27119.2 lineto
42836 27085.8 lineto
42802.5 27052.3 lineto
42769.1 26985.5 lineto
42769.1 26851.7 lineto
42802.5 26784.9 lineto
42836 26751.4 lineto
42902.8 26718 lineto
43036.6 26718 lineto
43103.4 26751.4 lineto
43136.9 26784.9 lineto
43170.3 26851.7 lineto
43170.3 26985.5 lineto
43136.9 27052.3 lineto
43103.4 27085.8 lineto
43036.6 27119.2 lineto
stroke
newpath
43604.9 27420.1 moveto
43671.8 27420.1 lineto
43738.6 27386.7 lineto
43772.1 27353.2 lineto
43805.5 27286.4 lineto
43838.9 27152.6 lineto
43838.9 26985.5 lineto
43805.5 26851.7 lineto
43772.1 26784.9 lineto
43738.6 26751.4 lineto
43671.8 26718 lineto
43604.9 26718 lineto
43538.1 26751.4 lineto
43504.6 26784.9 lineto
43471.2 26851.7 lineto
43437.8 26985.5 lineto
43437.8 27152.6 lineto
43471.2 27286.4 lineto
43504.6 27353.2 lineto
43538.1 27386.7 lineto
43604.9 27420.1 lineto
stroke
newpath
44273.6 27420.1 moveto
44340.4 27420.1 lineto
44407.3 27386.7 lineto
44440.7 27353.2 lineto
44474.2 27286.4 lineto
44507.6 27152.6 lineto
44507.6 26985.5 lineto
44474.2 26851.7 lineto
44440.7 26784.9 lineto
44407.3 26751.4 lineto
44340.4 26718 lineto
44273.6 26718 lineto
44206.7 26751.4 lineto
44173.3 26784.9 lineto
44139.8 26851.7 lineto
44106.4 26985.5 lineto
44106.4 27152.6 lineto
44139.8 27286.4 lineto
44173.3 27353.2 lineto
44206.7 27386.7 lineto
44273.6 27420.1 lineto
stroke
newpath
44808.5 26718 moveto
44808.5 27186.1 lineto
stroke
newpath
44808.5 27119.2 moveto
44841.9 27152.6 lineto
44908.8 27186.1 lineto
45009.1 27186.1 lineto
45076 27152.6 lineto
45109.4 27085.8 lineto
45109.4 26718 lineto
stroke
newpath
45109.4 27085.8 moveto
45142.8 27152.6 lineto
45209.7 27186.1 lineto
45310 27186.1 lineto
45376.9 27152.6 lineto
45410.3 27085.8 lineto
45410.3 26718 lineto
stroke
newpath
45744.6 26718 moveto
45744.6 27186.1 lineto
stroke
newpath
45744.6 27119.2 moveto
45778.1 27152.6 lineto
45844.9 27186.1 lineto
45945.2 27186.1 lineto
46012.1 27152.6 lineto
46045.5 27085.8 lineto
46045.5 26718 lineto
stroke
newpath
46045.5 27085.8 moveto
46079 27152.6 lineto
46145.8 27186.1 lineto
46246.1 27186.1 lineto
46313 27152.6 lineto
46346.4 27085.8 lineto
46346.4 26718 lineto
stroke
newpath
47717.2 27453.5 moveto
47115.4 26550.8 lineto
stroke
newpath
48619.9 27420.1 moveto
48686.7 27420.1 lineto
48753.6 27386.7 lineto
48787 27353.2 lineto
48820.4 27286.4 lineto
48853.9 27152.6 lineto
48853.9 26985.5 lineto
48820.4 26851.7 lineto
48787 26784.9 lineto
48753.6 26751.4 lineto
48686.7 26718 lineto
48619.9 26718 lineto
48553 26751.4 lineto
48519.6 26784.9 lineto
48486.1 26851.7 lineto
48452.7 26985.5 lineto
48452.7 27152.6 lineto
48486.1 27286.4 lineto
48519.6 27353.2 lineto
48553 27386.7 lineto
48619.9 27420.1 lineto
stroke
newpath
49154.8 26784.9 moveto
49188.2 26751.4 lineto
49154.8 26718 lineto
49121.3 26751.4 lineto
49154.8 26784.9 lineto
49154.8 26718 lineto
stroke
newpath
49622.8 27420.1 moveto
49689.7 27420.1 lineto
49756.6 27386.7 lineto
49790 27353.2 lineto
49823.4 27286.4 lineto
49856.9 27152.6 lineto
49856.9 26985.5 lineto
49823.4 26851.7 lineto
49790 26784.9 lineto
49756.6 26751.4 lineto
49689.7 26718 lineto
49622.8 26718 lineto
49556 26751.4 lineto
49522.5 26784.9 lineto
49489.1 26851.7 lineto
49455.7 26985.5 lineto
49455.7 27152.6 lineto
49489.1 27286.4 lineto
49522.5 27353.2 lineto
49556 27386.7 lineto
49622.8 27420.1 lineto
stroke
newpath
50090.9 27420.1 moveto
50559 27420.1 lineto
50258.1 26718 lineto
stroke
newpath
50960.2 27420.1 moveto
51027 27420.1 lineto
51093.9 27386.7 lineto
51127.3 27353.2 lineto
51160.8 27286.4 lineto
51194.2 27152.6 lineto
51194.2 26985.5 lineto
51160.8 26851.7 lineto
51127.3 26784.9 lineto
51093.9 26751.4 lineto
51027 26718 lineto
50960.2 26718 lineto
50893.3 26751.4 lineto
50859.9 26784.9 lineto
50826.4 26851.7 lineto
50793 26985.5 lineto
50793 27152.6 lineto
50826.4 27286.4 lineto
50859.9 27353.2 lineto
50893.3 27386.7 lineto
50960.2 27420.1 lineto
stroke
newpath
51528.5 26718 moveto
51662.2 26718 lineto
51729.1 26751.4 lineto
51762.5 26784.9 lineto
51829.4 26885.2 lineto
51862.8 27018.9 lineto
51862.8 27286.4 lineto
51829.4 27353.2 lineto
51796 27386.7 lineto
51729.1 27420.1 lineto
51595.4 27420.1 lineto
51528.5 27386.7 lineto
51495.1 27353.2 lineto
51461.6 27286.4 lineto
51461.6 27119.2 lineto
51495.1 27052.3 lineto
51528.5 27018.9 lineto
51595.4 26985.5 lineto
51729.1 26985.5 lineto
51796 27018.9 lineto
51829.4 27052.3 lineto
51862.8 27119.2 lineto
stroke
newpath
52130.3 27420.1 moveto
52130.3 27286.4 lineto
stroke
newpath
52397.8 27420.1 moveto
52397.8 27286.4 lineto
stroke
newpath
53434.2 26450.5 moveto
53400.8 26484 lineto
53333.9 26584.3 lineto
53300.5 26651.1 lineto
53267 26751.4 lineto
53233.6 26918.6 lineto
53233.6 27052.3 lineto
53267 27219.5 lineto
53300.5 27319.8 lineto
53333.9 27386.7 lineto
53400.8 27487 lineto
53434.2 27520.4 lineto
stroke
newpath
53801.9 27119.2 moveto
53735.1 27152.6 lineto
53701.6 27186.1 lineto
53668.2 27252.9 lineto
53668.2 27286.4 lineto
53701.6 27353.2 lineto
53735.1 27386.7 lineto
53801.9 27420.1 lineto
53935.7 27420.1 lineto
54002.5 27386.7 lineto
54036 27353.2 lineto
54069.4 27286.4 lineto
54069.4 27252.9 lineto
54036 27186.1 lineto
54002.5 27152.6 lineto
53935.7 27119.2 lineto
53801.9 27119.2 lineto
53735.1 27085.8 lineto
53701.6 27052.3 lineto
53668.2 26985.5 lineto
53668.2 26851.7 lineto
53701.6 26784.9 lineto
53735.1 26751.4 lineto
53801.9 26718 lineto
53935.7 26718 lineto
54002.5 26751.4 lineto
54036 26784.9 lineto
54069.4 26851.7 lineto
54069.4 26985.5 lineto
54036 27052.3 lineto
54002.5 27085.8 lineto
53935.7 27119.2 lineto
stroke
newpath
54905.2 26718 moveto
54905.2 27420.1 lineto
stroke
newpath
55206.1 26718 moveto
55206.1 27085.8 lineto
55172.7 27152.6 lineto
55105.8 27186.1 lineto
55005.5 27186.1 lineto
54938.7 27152.6 lineto
54905.2 27119.2 lineto
stroke
newpath
55640.8 26718 moveto
55573.9 26751.4 lineto
55540.5 26784.9 lineto
55507 26851.7 lineto
55507 27052.3 lineto
55540.5 27119.2 lineto
55573.9 27152.6 lineto
55640.8 27186.1 lineto
55741.1 27186.1 lineto
55807.9 27152.6 lineto
55841.4 27119.2 lineto
55874.8 27052.3 lineto
55874.8 26851.7 lineto
55841.4 26784.9 lineto
55807.9 26751.4 lineto
55741.1 26718 lineto
55640.8 26718 lineto
stroke
newpath
56276 26718 moveto
56209.1 26751.4 lineto
56175.7 26818.3 lineto
56175.7 27420.1 lineto
stroke
newpath
56810.9 26751.4 moveto
56744 26718 lineto
56610.3 26718 lineto
56543.4 26751.4 lineto
56510 26818.3 lineto
56510 27085.8 lineto
56543.4 27152.6 lineto
56610.3 27186.1 lineto
56744 27186.1 lineto
56810.9 27152.6 lineto
56844.3 27085.8 lineto
56844.3 27018.9 lineto
56510 26952 lineto
stroke
newpath
57111.8 26751.4 moveto
57178.7 26718 lineto
57312.4 26718 lineto
57379.3 26751.4 lineto
57412.7 26818.3 lineto
57412.7 26851.7 lineto
57379.3 26918.6 lineto
57312.4 26952 lineto
57212.1 26952 lineto
57145.2 26985.5 lineto
57111.8 27052.3 lineto
57111.8 27085.8 lineto
57145.2 27152.6 lineto
57212.1 27186.1 lineto
57312.4 27186.1 lineto
57379.3 27152.6 lineto
stroke
newpath
57646.7 26450.5 moveto
57680.2 26484 lineto
57747 26584.3 lineto
57780.5 26651.1 lineto
57813.9 26751.4 lineto
57847.3 26918.6 lineto
57847.3 27052.3 lineto
57813.9 27219.5 lineto
57780.5 27319.8 lineto
57747 27386.7 lineto
57680.2 27487 lineto
57646.7 27520.4 lineto
stroke
showpage
grestore
%%EOF
