%!PS-Adobe-3.0
%%Creator: PCBNEW
%%CreationDate: Mon Dec 11 16:34:18 2023
%%Title: ()
%%Pages: 1
%%PageOrder: Ascend
%%BoundingBox: 0 0 596 842
%%DocumentMedia: A4 595 842 0 () ()
%%Orientation: Landscape
%%EndComments
%%BeginProlog
/line { newpath moveto lineto stroke } bind def
/cir0 { newpath 0 360 arc stroke } bind def
/cir1 { newpath 0 360 arc gsave fill grestore stroke } bind def
/cir2 { newpath 0 360 arc gsave fill grestore stroke } bind def
/arc0 { newpath arc stroke } bind def
/arc1 { newpath 4 index 4 index moveto arc closepath gsave fill
    grestore stroke } bind def
/arc2 { newpath 4 index 4 index moveto arc closepath gsave fill
    grestore stroke } bind def
/poly0 { stroke } bind def
/poly1 { closepath gsave fill grestore stroke } bind def
/poly2 { closepath gsave fill grestore stroke } bind def
/rect0 { rectstroke } bind def
/rect1 { rectfill } bind def
/rect2 { rectfill } bind def
/linemode0 { 0 setlinecap 0 setlinejoin 0 setlinewidth } bind def
/linemode1 { 1 setlinecap 1 setlinejoin } bind def
/dashedline { [200] 100 setdash } bind def
/solidline { [] 0 setdash } bind def
/phantomshow { moveto
    /KicadFont findfont 0.000001 scalefont setfont
    show } bind def
/textshow { gsave
    findfont exch scalefont setfont concat 1 scale 0 0 moveto show
    } bind def
/reencodefont {
  findfont dup length dict begin
  { 1 index /FID ne
    { def }
    { pop pop } ifelse
  } forall
  /Encoding ISOLatin1Encoding def
  currentdict
  end } bind def
/KicadFont /Helvetica reencodefont definefont pop
/KicadFont-Bold /Helvetica-Bold reencodefont definefont pop
/KicadFont-Oblique /Helvetica-Oblique reencodefont definefont pop
/KicadFont-BoldOblique /Helvetica-BoldOblique reencodefont definefont pop
%%EndProlog
%%Page: 1 1
%%BeginPageSetup
gsave
0.0072 0.0072 scale
linemode1
82680 0 translate 90 rotate
70.2091 setlinewidth
%%EndPageSetup
0 0 0 setrgbcolor
35.1045 setlinewidth
newpath
76017.3 80693.9 moveto
40912.7 80693.9 lineto
stroke
0 0 0 setrgbcolor
newpath
40912.7 35058.1 moveto
76017.3 35058.1 lineto
stroke
0 0 0 setrgbcolor
newpath
76017.3 35058.1 moveto
76017.3 80693.9 lineto
stroke
0 0 0 setrgbcolor
newpath
40912.7 80693.9 moveto
40912.7 35058.1 lineto
stroke
70.2091 setlinewidth
105.314 setlinewidth
newpath
59100.4 38198.2 moveto
60153.5 37145 lineto
stroke
newpath
60153.5 38198.2 moveto
59100.4 37145 lineto
stroke
newpath
63249.7 38198.2 moveto
64302.9 37145 lineto
stroke
newpath
64302.9 38198.2 moveto
63249.7 37145 lineto
stroke
122.866 setlinewidth
48772.6 63818.5 614.329 cir0
48772.6 45985.4 614.329 cir0
66605.7 63818.5 614.329 cir0
70.2091 setlinewidth
0 0 0 setrgbcolor
0 0 0 setrgbcolor
newpath
41799.5 33950.6 moveto
41799.5 34652.7 lineto
41966.7 34652.7 lineto
42067 34619.2 lineto
42133.9 34552.4 lineto
42167.3 34485.5 lineto
42200.7 34351.8 lineto
42200.7 34251.5 lineto
42167.3 34117.8 lineto
42133.9 34050.9 lineto
42067 33984 lineto
41966.7 33950.6 lineto
41799.5 33950.6 lineto
stroke
newpath
42501.6 33950.6 moveto
42501.6 34418.7 lineto
stroke
newpath
42501.6 34284.9 moveto
42535.1 34351.8 lineto
42568.5 34385.2 lineto
42635.4 34418.7 lineto
42702.2 34418.7 lineto
stroke
newpath
42936.3 33950.6 moveto
42936.3 34418.7 lineto
stroke
newpath
42936.3 34652.7 moveto
42902.8 34619.2 lineto
42936.3 34585.8 lineto
42969.7 34619.2 lineto
42936.3 34652.7 lineto
42936.3 34585.8 lineto
stroke
newpath
43370.9 33950.6 moveto
43304 33984 lineto
43270.6 34050.9 lineto
43270.6 34652.7 lineto
stroke
newpath
43738.6 33950.6 moveto
43671.8 33984 lineto
43638.4 34050.9 lineto
43638.4 34652.7 lineto
stroke
newpath
44541 33950.6 moveto
44541 34652.7 lineto
44775.1 34151.2 lineto
45009.1 34652.7 lineto
45009.1 33950.6 lineto
stroke
newpath
45644.3 33950.6 moveto
45644.3 34318.4 lineto
45610.9 34385.2 lineto
45544 34418.7 lineto
45410.3 34418.7 lineto
45343.4 34385.2 lineto
stroke
newpath
45644.3 33984 moveto
45577.5 33950.6 lineto
45410.3 33950.6 lineto
45343.4 33984 lineto
45310 34050.9 lineto
45310 34117.8 lineto
45343.4 34184.6 lineto
45410.3 34218.1 lineto
45577.5 34218.1 lineto
45644.3 34251.5 lineto
stroke
newpath
45978.7 34418.7 moveto
45978.7 33716.6 lineto
stroke
newpath
45978.7 34385.2 moveto
46045.5 34418.7 lineto
46179.3 34418.7 lineto
46246.1 34385.2 lineto
46279.5 34351.8 lineto
46313 34284.9 lineto
46313 34084.3 lineto
46279.5 34017.5 lineto
46246.1 33984 lineto
46179.3 33950.6 lineto
46045.5 33950.6 lineto
45978.7 33984 lineto
stroke
newpath
46613.9 34017.5 moveto
46647.3 33984 lineto
46613.9 33950.6 lineto
46580.4 33984 lineto
46613.9 34017.5 lineto
46613.9 33950.6 lineto
stroke
newpath
46613.9 34385.2 moveto
46647.3 34351.8 lineto
46613.9 34318.4 lineto
46580.4 34351.8 lineto
46613.9 34385.2 lineto
46613.9 34318.4 lineto
stroke
newpath
40193.1 33144.9 moveto
40895.2 32442.8 lineto
stroke
newpath
40895.2 33144.9 moveto
40193.1 32442.8 lineto
stroke
0 0 0 setrgbcolor
0 0 0 setrgbcolor
newpath
41732.7 33178.3 moveto
42167.3 33178.3 lineto
41933.3 32910.8 lineto
42033.6 32910.8 lineto
42100.4 32877.4 lineto
42133.9 32844 lineto
42167.3 32777.1 lineto
42167.3 32609.9 lineto
42133.9 32543.1 lineto
42100.4 32509.6 lineto
42033.6 32476.2 lineto
41833 32476.2 lineto
41766.1 32509.6 lineto
41732.7 32543.1 lineto
stroke
newpath
42468.2 32543.1 moveto
42501.6 32509.6 lineto
42468.2 32476.2 lineto
42434.8 32509.6 lineto
42468.2 32543.1 lineto
42468.2 32476.2 lineto
stroke
newpath
42936.3 33178.3 moveto
43003.1 33178.3 lineto
43070 33144.9 lineto
43103.4 33111.4 lineto
43136.9 33044.6 lineto
43170.3 32910.8 lineto
43170.3 32743.7 lineto
43136.9 32609.9 lineto
43103.4 32543.1 lineto
43070 32509.6 lineto
43003.1 32476.2 lineto
42936.3 32476.2 lineto
42869.4 32509.6 lineto
42836 32543.1 lineto
42802.5 32609.9 lineto
42769.1 32743.7 lineto
42769.1 32910.8 lineto
42802.5 33044.6 lineto
42836 33111.4 lineto
42869.4 33144.9 lineto
42936.3 33178.3 lineto
stroke
newpath
43604.9 33178.3 moveto
43671.8 33178.3 lineto
43738.6 33144.9 lineto
43772.1 33111.4 lineto
43805.5 33044.6 lineto
43838.9 32910.8 lineto
43838.9 32743.7 lineto
43805.5 32609.9 lineto
43772.1 32543.1 lineto
43738.6 32509.6 lineto
43671.8 32476.2 lineto
43604.9 32476.2 lineto
43538.1 32509.6 lineto
43504.6 32543.1 lineto
43471.2 32609.9 lineto
43437.8 32743.7 lineto
43437.8 32910.8 lineto
43471.2 33044.6 lineto
43504.6 33111.4 lineto
43538.1 33144.9 lineto
43604.9 33178.3 lineto
stroke
newpath
44273.6 33178.3 moveto
44340.4 33178.3 lineto
44407.3 33144.9 lineto
44440.7 33111.4 lineto
44474.2 33044.6 lineto
44507.6 32910.8 lineto
44507.6 32743.7 lineto
44474.2 32609.9 lineto
44440.7 32543.1 lineto
44407.3 32509.6 lineto
44340.4 32476.2 lineto
44273.6 32476.2 lineto
44206.7 32509.6 lineto
44173.3 32543.1 lineto
44139.8 32609.9 lineto
44106.4 32743.7 lineto
44106.4 32910.8 lineto
44139.8 33044.6 lineto
44173.3 33111.4 lineto
44206.7 33144.9 lineto
44273.6 33178.3 lineto
stroke
newpath
44808.5 32476.2 moveto
44808.5 32944.3 lineto
stroke
newpath
44808.5 32877.4 moveto
44841.9 32910.8 lineto
44908.8 32944.3 lineto
45009.1 32944.3 lineto
45076 32910.8 lineto
45109.4 32844 lineto
45109.4 32476.2 lineto
stroke
newpath
45109.4 32844 moveto
45142.8 32910.8 lineto
45209.7 32944.3 lineto
45310 32944.3 lineto
45376.9 32910.8 lineto
45410.3 32844 lineto
45410.3 32476.2 lineto
stroke
newpath
45744.6 32476.2 moveto
45744.6 32944.3 lineto
stroke
newpath
45744.6 32877.4 moveto
45778.1 32910.8 lineto
45844.9 32944.3 lineto
45945.2 32944.3 lineto
46012.1 32910.8 lineto
46045.5 32844 lineto
46045.5 32476.2 lineto
stroke
newpath
46045.5 32844 moveto
46079 32910.8 lineto
46145.8 32944.3 lineto
46246.1 32944.3 lineto
46313 32910.8 lineto
46346.4 32844 lineto
46346.4 32476.2 lineto
stroke
newpath
47717.2 33211.7 moveto
47115.4 32309 lineto
stroke
newpath
48619.9 33178.3 moveto
48686.7 33178.3 lineto
48753.6 33144.9 lineto
48787 33111.4 lineto
48820.4 33044.6 lineto
48853.9 32910.8 lineto
48853.9 32743.7 lineto
48820.4 32609.9 lineto
48787 32543.1 lineto
48753.6 32509.6 lineto
48686.7 32476.2 lineto
48619.9 32476.2 lineto
48553 32509.6 lineto
48519.6 32543.1 lineto
48486.1 32609.9 lineto
48452.7 32743.7 lineto
48452.7 32910.8 lineto
48486.1 33044.6 lineto
48519.6 33111.4 lineto
48553 33144.9 lineto
48619.9 33178.3 lineto
stroke
newpath
49154.8 32543.1 moveto
49188.2 32509.6 lineto
49154.8 32476.2 lineto
49121.3 32509.6 lineto
49154.8 32543.1 lineto
49154.8 32476.2 lineto
stroke
newpath
49856.9 32476.2 moveto
49455.7 32476.2 lineto
stroke
newpath
49656.3 32476.2 moveto
49656.3 33178.3 lineto
49589.4 33078 lineto
49522.5 33011.1 lineto
49455.7 32977.7 lineto
stroke
newpath
50525.5 32476.2 moveto
50124.3 32476.2 lineto
stroke
newpath
50324.9 32476.2 moveto
50324.9 33178.3 lineto
50258.1 33078 lineto
50191.2 33011.1 lineto
50124.3 32977.7 lineto
stroke
newpath
50926.7 32877.4 moveto
50859.9 32910.8 lineto
50826.4 32944.3 lineto
50793 33011.1 lineto
50793 33044.6 lineto
50826.4 33111.4 lineto
50859.9 33144.9 lineto
50926.7 33178.3 lineto
51060.5 33178.3 lineto
51127.3 33144.9 lineto
51160.8 33111.4 lineto
51194.2 33044.6 lineto
51194.2 33011.1 lineto
51160.8 32944.3 lineto
51127.3 32910.8 lineto
51060.5 32877.4 lineto
50926.7 32877.4 lineto
50859.9 32844 lineto
50826.4 32810.5 lineto
50793 32743.7 lineto
50793 32609.9 lineto
50826.4 32543.1 lineto
50859.9 32509.6 lineto
50926.7 32476.2 lineto
51060.5 32476.2 lineto
51127.3 32509.6 lineto
51160.8 32543.1 lineto
51194.2 32609.9 lineto
51194.2 32743.7 lineto
51160.8 32810.5 lineto
51127.3 32844 lineto
51060.5 32877.4 lineto
stroke
newpath
51862.8 32476.2 moveto
51461.6 32476.2 lineto
stroke
newpath
51662.2 32476.2 moveto
51662.2 33178.3 lineto
51595.4 33078 lineto
51528.5 33011.1 lineto
51461.6 32977.7 lineto
stroke
newpath
52130.3 33178.3 moveto
52130.3 33044.6 lineto
stroke
newpath
52397.8 33178.3 moveto
52397.8 33044.6 lineto
stroke
newpath
53434.2 32208.7 moveto
53400.8 32242.2 lineto
53333.9 32342.5 lineto
53300.5 32409.3 lineto
53267 32509.6 lineto
53233.6 32676.8 lineto
53233.6 32810.5 lineto
53267 32977.7 lineto
53300.5 33078 lineto
53333.9 33144.9 lineto
53400.8 33245.2 lineto
53434.2 33278.6 lineto
stroke
newpath
53668.2 33111.4 moveto
53701.6 33144.9 lineto
53768.5 33178.3 lineto
53935.7 33178.3 lineto
54002.5 33144.9 lineto
54036 33111.4 lineto
54069.4 33044.6 lineto
54069.4 32977.7 lineto
54036 32877.4 lineto
53634.8 32476.2 lineto
54069.4 32476.2 lineto
stroke
newpath
54905.2 32476.2 moveto
54905.2 33178.3 lineto
stroke
newpath
55206.1 32476.2 moveto
55206.1 32844 lineto
55172.7 32910.8 lineto
55105.8 32944.3 lineto
55005.5 32944.3 lineto
54938.7 32910.8 lineto
54905.2 32877.4 lineto
stroke
newpath
55640.8 32476.2 moveto
55573.9 32509.6 lineto
55540.5 32543.1 lineto
55507 32609.9 lineto
55507 32810.5 lineto
55540.5 32877.4 lineto
55573.9 32910.8 lineto
55640.8 32944.3 lineto
55741.1 32944.3 lineto
55807.9 32910.8 lineto
55841.4 32877.4 lineto
55874.8 32810.5 lineto
55874.8 32609.9 lineto
55841.4 32543.1 lineto
55807.9 32509.6 lineto
55741.1 32476.2 lineto
55640.8 32476.2 lineto
stroke
newpath
56276 32476.2 moveto
56209.1 32509.6 lineto
56175.7 32576.5 lineto
56175.7 33178.3 lineto
stroke
newpath
56810.9 32509.6 moveto
56744 32476.2 lineto
56610.3 32476.2 lineto
56543.4 32509.6 lineto
56510 32576.5 lineto
56510 32844 lineto
56543.4 32910.8 lineto
56610.3 32944.3 lineto
56744 32944.3 lineto
56810.9 32910.8 lineto
56844.3 32844 lineto
56844.3 32777.1 lineto
56510 32710.2 lineto
stroke
newpath
57111.8 32509.6 moveto
57178.7 32476.2 lineto
57312.4 32476.2 lineto
57379.3 32509.6 lineto
57412.7 32576.5 lineto
57412.7 32609.9 lineto
57379.3 32676.8 lineto
57312.4 32710.2 lineto
57212.1 32710.2 lineto
57145.2 32743.7 lineto
57111.8 32810.5 lineto
57111.8 32844 lineto
57145.2 32910.8 lineto
57212.1 32944.3 lineto
57312.4 32944.3 lineto
57379.3 32910.8 lineto
stroke
newpath
57646.7 32208.7 moveto
57680.2 32242.2 lineto
57747 32342.5 lineto
57780.5 32409.3 lineto
57813.9 32509.6 lineto
57847.3 32676.8 lineto
57847.3 32810.5 lineto
57813.9 32977.7 lineto
57780.5 33078 lineto
57747 33144.9 lineto
57680.2 33245.2 lineto
57646.7 33278.6 lineto
stroke
newpath
58917.2 32208.7 moveto
58883.7 32242.2 lineto
58816.9 32342.5 lineto
58783.4 32409.3 lineto
58750 32509.6 lineto
58716.6 32676.8 lineto
58716.6 32810.5 lineto
58750 32977.7 lineto
58783.4 33078 lineto
58816.9 33144.9 lineto
58883.7 33245.2 lineto
58917.2 33278.6 lineto
stroke
newpath
59184.6 32944.3 moveto
59184.6 32476.2 lineto
stroke
newpath
59184.6 32877.4 moveto
59218.1 32910.8 lineto
59284.9 32944.3 lineto
59385.2 32944.3 lineto
59452.1 32910.8 lineto
59485.5 32844 lineto
59485.5 32476.2 lineto
stroke
newpath
59920.2 32476.2 moveto
59853.3 32509.6 lineto
59819.9 32543.1 lineto
59786.4 32609.9 lineto
59786.4 32810.5 lineto
59819.9 32877.4 lineto
59853.3 32910.8 lineto
59920.2 32944.3 lineto
60020.5 32944.3 lineto
60087.3 32910.8 lineto
60120.8 32877.4 lineto
60154.2 32810.5 lineto
60154.2 32609.9 lineto
60120.8 32543.1 lineto
60087.3 32509.6 lineto
60020.5 32476.2 lineto
59920.2 32476.2 lineto
stroke
newpath
60354.8 32944.3 moveto
60622.3 32944.3 lineto
stroke
newpath
60455.1 33178.3 moveto
60455.1 32576.5 lineto
60488.5 32509.6 lineto
60555.4 32476.2 lineto
60622.3 32476.2 lineto
stroke
newpath
61391.2 32944.3 moveto
61391.2 32242.2 lineto
stroke
newpath
61391.2 32910.8 moveto
61458.1 32944.3 lineto
61591.8 32944.3 lineto
61658.7 32910.8 lineto
61692.1 32877.4 lineto
61725.5 32810.5 lineto
61725.5 32609.9 lineto
61692.1 32543.1 lineto
61658.7 32509.6 lineto
61591.8 32476.2 lineto
61458.1 32476.2 lineto
61391.2 32509.6 lineto
stroke
newpath
62126.7 32476.2 moveto
62059.9 32509.6 lineto
62026.4 32576.5 lineto
62026.4 33178.3 lineto
stroke
newpath
62695.1 32476.2 moveto
62695.1 32844 lineto
62661.7 32910.8 lineto
62594.8 32944.3 lineto
62461.1 32944.3 lineto
62394.2 32910.8 lineto
stroke
newpath
62695.1 32509.6 moveto
62628.2 32476.2 lineto
62461.1 32476.2 lineto
62394.2 32509.6 lineto
62360.8 32576.5 lineto
62360.8 32643.4 lineto
62394.2 32710.2 lineto
62461.1 32743.7 lineto
62628.2 32743.7 lineto
62695.1 32777.1 lineto
stroke
newpath
62929.1 32944.3 moveto
63196.6 32944.3 lineto
stroke
newpath
63029.4 33178.3 moveto
63029.4 32576.5 lineto
63062.9 32509.6 lineto
63129.7 32476.2 lineto
63196.6 32476.2 lineto
stroke
newpath
63698.1 32509.6 moveto
63631.2 32476.2 lineto
63497.5 32476.2 lineto
63430.6 32509.6 lineto
63397.2 32576.5 lineto
63397.2 32844 lineto
63430.6 32910.8 lineto
63497.5 32944.3 lineto
63631.2 32944.3 lineto
63698.1 32910.8 lineto
63731.5 32844 lineto
63731.5 32777.1 lineto
63397.2 32710.2 lineto
stroke
newpath
64333.3 32476.2 moveto
64333.3 33178.3 lineto
stroke
newpath
64333.3 32509.6 moveto
64266.4 32476.2 lineto
64132.7 32476.2 lineto
64065.8 32509.6 lineto
64032.4 32543.1 lineto
63999 32609.9 lineto
63999 32810.5 lineto
64032.4 32877.4 lineto
64065.8 32910.8 lineto
64132.7 32944.3 lineto
64266.4 32944.3 lineto
64333.3 32910.8 lineto
stroke
newpath
64600.8 32208.7 moveto
64634.2 32242.2 lineto
64701.1 32342.5 lineto
64734.5 32409.3 lineto
64767.9 32509.6 lineto
64801.4 32676.8 lineto
64801.4 32810.5 lineto
64767.9 32977.7 lineto
64734.5 33078 lineto
64701.1 33144.9 lineto
64634.2 33245.2 lineto
64600.8 33278.6 lineto
stroke
40544.1 31627.8 351.045 cir0
0 0 0 setrgbcolor
0 0 0 setrgbcolor
newpath
41732.7 32012.3 moveto
42167.3 32012.3 lineto
41933.3 31744.8 lineto
42033.6 31744.8 lineto
42100.4 31711.4 lineto
42133.9 31678 lineto
42167.3 31611.1 lineto
42167.3 31443.9 lineto
42133.9 31377.1 lineto
42100.4 31343.6 lineto
42033.6 31310.2 lineto
41833 31310.2 lineto
41766.1 31343.6 lineto
41732.7 31377.1 lineto
stroke
newpath
42468.2 31377.1 moveto
42501.6 31343.6 lineto
42468.2 31310.2 lineto
42434.8 31343.6 lineto
42468.2 31377.1 lineto
42468.2 31310.2 lineto
stroke
newpath
43136.9 32012.3 moveto
42802.5 32012.3 lineto
42769.1 31678 lineto
42802.5 31711.4 lineto
42869.4 31744.8 lineto
43036.6 31744.8 lineto
43103.4 31711.4 lineto
43136.9 31678 lineto
43170.3 31611.1 lineto
43170.3 31443.9 lineto
43136.9 31377.1 lineto
43103.4 31343.6 lineto
43036.6 31310.2 lineto
42869.4 31310.2 lineto
42802.5 31343.6 lineto
42769.1 31377.1 lineto
stroke
newpath
43604.9 32012.3 moveto
43671.8 32012.3 lineto
43738.6 31978.9 lineto
43772.1 31945.4 lineto
43805.5 31878.6 lineto
43838.9 31744.8 lineto
43838.9 31577.7 lineto
43805.5 31443.9 lineto
43772.1 31377.1 lineto
43738.6 31343.6 lineto
43671.8 31310.2 lineto
43604.9 31310.2 lineto
43538.1 31343.6 lineto
43504.6 31377.1 lineto
43471.2 31443.9 lineto
43437.8 31577.7 lineto
43437.8 31744.8 lineto
43471.2 31878.6 lineto
43504.6 31945.4 lineto
43538.1 31978.9 lineto
43604.9 32012.3 lineto
stroke
newpath
44273.6 32012.3 moveto
44340.4 32012.3 lineto
44407.3 31978.9 lineto
44440.7 31945.4 lineto
44474.2 31878.6 lineto
44507.6 31744.8 lineto
44507.6 31577.7 lineto
44474.2 31443.9 lineto
44440.7 31377.1 lineto
44407.3 31343.6 lineto
44340.4 31310.2 lineto
44273.6 31310.2 lineto
44206.7 31343.6 lineto
44173.3 31377.1 lineto
44139.8 31443.9 lineto
44106.4 31577.7 lineto
44106.4 31744.8 lineto
44139.8 31878.6 lineto
44173.3 31945.4 lineto
44206.7 31978.9 lineto
44273.6 32012.3 lineto
stroke
newpath
44808.5 31310.2 moveto
44808.5 31778.3 lineto
stroke
newpath
44808.5 31711.4 moveto
44841.9 31744.8 lineto
44908.8 31778.3 lineto
45009.1 31778.3 lineto
45076 31744.8 lineto
45109.4 31678 lineto
45109.4 31310.2 lineto
stroke
newpath
45109.4 31678 moveto
45142.8 31744.8 lineto
45209.7 31778.3 lineto
45310 31778.3 lineto
45376.9 31744.8 lineto
45410.3 31678 lineto
45410.3 31310.2 lineto
stroke
newpath
45744.6 31310.2 moveto
45744.6 31778.3 lineto
stroke
newpath
45744.6 31711.4 moveto
45778.1 31744.8 lineto
45844.9 31778.3 lineto
45945.2 31778.3 lineto
46012.1 31744.8 lineto
46045.5 31678 lineto
46045.5 31310.2 lineto
stroke
newpath
46045.5 31678 moveto
46079 31744.8 lineto
46145.8 31778.3 lineto
46246.1 31778.3 lineto
46313 31744.8 lineto
46346.4 31678 lineto
46346.4 31310.2 lineto
stroke
newpath
47717.2 32045.7 moveto
47115.4 31143 lineto
stroke
newpath
48619.9 32012.3 moveto
48686.7 32012.3 lineto
48753.6 31978.9 lineto
48787 31945.4 lineto
48820.4 31878.6 lineto
48853.9 31744.8 lineto
48853.9 31577.7 lineto
48820.4 31443.9 lineto
48787 31377.1 lineto
48753.6 31343.6 lineto
48686.7 31310.2 lineto
48619.9 31310.2 lineto
48553 31343.6 lineto
48519.6 31377.1 lineto
48486.1 31443.9 lineto
48452.7 31577.7 lineto
48452.7 31744.8 lineto
48486.1 31878.6 lineto
48519.6 31945.4 lineto
48553 31978.9 lineto
48619.9 32012.3 lineto
stroke
newpath
49154.8 31377.1 moveto
49188.2 31343.6 lineto
49154.8 31310.2 lineto
49121.3 31343.6 lineto
49154.8 31377.1 lineto
49154.8 31310.2 lineto
stroke
newpath
49856.9 31310.2 moveto
49455.7 31310.2 lineto
stroke
newpath
49656.3 31310.2 moveto
49656.3 32012.3 lineto
49589.4 31912 lineto
49522.5 31845.1 lineto
49455.7 31811.7 lineto
stroke
newpath
50090.9 32012.3 moveto
50525.5 32012.3 lineto
50291.5 31744.8 lineto
50391.8 31744.8 lineto
50458.7 31711.4 lineto
50492.1 31678 lineto
50525.5 31611.1 lineto
50525.5 31443.9 lineto
50492.1 31377.1 lineto
50458.7 31343.6 lineto
50391.8 31310.2 lineto
50191.2 31310.2 lineto
50124.3 31343.6 lineto
50090.9 31377.1 lineto
stroke
newpath
50759.6 32012.3 moveto
51227.6 32012.3 lineto
50926.7 31310.2 lineto
stroke
newpath
51595.4 31711.4 moveto
51528.5 31744.8 lineto
51495.1 31778.3 lineto
51461.6 31845.1 lineto
51461.6 31878.6 lineto
51495.1 31945.4 lineto
51528.5 31978.9 lineto
51595.4 32012.3 lineto
51729.1 32012.3 lineto
51796 31978.9 lineto
51829.4 31945.4 lineto
51862.8 31878.6 lineto
51862.8 31845.1 lineto
51829.4 31778.3 lineto
51796 31744.8 lineto
51729.1 31711.4 lineto
51595.4 31711.4 lineto
51528.5 31678 lineto
51495.1 31644.5 lineto
51461.6 31577.7 lineto
51461.6 31443.9 lineto
51495.1 31377.1 lineto
51528.5 31343.6 lineto
51595.4 31310.2 lineto
51729.1 31310.2 lineto
51796 31343.6 lineto
51829.4 31377.1 lineto
51862.8 31443.9 lineto
51862.8 31577.7 lineto
51829.4 31644.5 lineto
51796 31678 lineto
51729.1 31711.4 lineto
stroke
newpath
52130.3 32012.3 moveto
52130.3 31878.6 lineto
stroke
newpath
52397.8 32012.3 moveto
52397.8 31878.6 lineto
stroke
newpath
53434.2 31042.7 moveto
53400.8 31076.2 lineto
53333.9 31176.5 lineto
53300.5 31243.3 lineto
53267 31343.6 lineto
53233.6 31510.8 lineto
53233.6 31644.5 lineto
53267 31811.7 lineto
53300.5 31912 lineto
53333.9 31978.9 lineto
53400.8 32079.2 lineto
53434.2 32112.6 lineto
stroke
newpath
53634.8 32012.3 moveto
54069.4 32012.3 lineto
53835.4 31744.8 lineto
53935.7 31744.8 lineto
54002.5 31711.4 lineto
54036 31678 lineto
54069.4 31611.1 lineto
54069.4 31443.9 lineto
54036 31377.1 lineto
54002.5 31343.6 lineto
53935.7 31310.2 lineto
53735.1 31310.2 lineto
53668.2 31343.6 lineto
53634.8 31377.1 lineto
stroke
newpath
54905.2 31310.2 moveto
54905.2 32012.3 lineto
stroke
newpath
55206.1 31310.2 moveto
55206.1 31678 lineto
55172.7 31744.8 lineto
55105.8 31778.3 lineto
55005.5 31778.3 lineto
54938.7 31744.8 lineto
54905.2 31711.4 lineto
stroke
newpath
55640.8 31310.2 moveto
55573.9 31343.6 lineto
55540.5 31377.1 lineto
55507 31443.9 lineto
55507 31644.5 lineto
55540.5 31711.4 lineto
55573.9 31744.8 lineto
55640.8 31778.3 lineto
55741.1 31778.3 lineto
55807.9 31744.8 lineto
55841.4 31711.4 lineto
55874.8 31644.5 lineto
55874.8 31443.9 lineto
55841.4 31377.1 lineto
55807.9 31343.6 lineto
55741.1 31310.2 lineto
55640.8 31310.2 lineto
stroke
newpath
56276 31310.2 moveto
56209.1 31343.6 lineto
56175.7 31410.5 lineto
56175.7 32012.3 lineto
stroke
newpath
56810.9 31343.6 moveto
56744 31310.2 lineto
56610.3 31310.2 lineto
56543.4 31343.6 lineto
56510 31410.5 lineto
56510 31678 lineto
56543.4 31744.8 lineto
56610.3 31778.3 lineto
56744 31778.3 lineto
56810.9 31744.8 lineto
56844.3 31678 lineto
56844.3 31611.1 lineto
56510 31544.2 lineto
stroke
newpath
57111.8 31343.6 moveto
57178.7 31310.2 lineto
57312.4 31310.2 lineto
57379.3 31343.6 lineto
57412.7 31410.5 lineto
57412.7 31443.9 lineto
57379.3 31510.8 lineto
57312.4 31544.2 lineto
57212.1 31544.2 lineto
57145.2 31577.7 lineto
57111.8 31644.5 lineto
57111.8 31678 lineto
57145.2 31744.8 lineto
57212.1 31778.3 lineto
57312.4 31778.3 lineto
57379.3 31744.8 lineto
stroke
newpath
57646.7 31042.7 moveto
57680.2 31076.2 lineto
57747 31176.5 lineto
57780.5 31243.3 lineto
57813.9 31343.6 lineto
57847.3 31510.8 lineto
57847.3 31644.5 lineto
57813.9 31811.7 lineto
57780.5 31912 lineto
57747 31978.9 lineto
57680.2 32079.2 lineto
57646.7 32112.6 lineto
stroke
newpath
58917.2 31042.7 moveto
58883.7 31076.2 lineto
58816.9 31176.5 lineto
58783.4 31243.3 lineto
58750 31343.6 lineto
58716.6 31510.8 lineto
58716.6 31644.5 lineto
58750 31811.7 lineto
58783.4 31912 lineto
58816.9 31978.9 lineto
58883.7 32079.2 lineto
58917.2 32112.6 lineto
stroke
newpath
59184.6 31778.3 moveto
59184.6 31310.2 lineto
stroke
newpath
59184.6 31711.4 moveto
59218.1 31744.8 lineto
59284.9 31778.3 lineto
59385.2 31778.3 lineto
59452.1 31744.8 lineto
59485.5 31678 lineto
59485.5 31310.2 lineto
stroke
newpath
59920.2 31310.2 moveto
59853.3 31343.6 lineto
59819.9 31377.1 lineto
59786.4 31443.9 lineto
59786.4 31644.5 lineto
59819.9 31711.4 lineto
59853.3 31744.8 lineto
59920.2 31778.3 lineto
60020.5 31778.3 lineto
60087.3 31744.8 lineto
60120.8 31711.4 lineto
60154.2 31644.5 lineto
60154.2 31443.9 lineto
60120.8 31377.1 lineto
60087.3 31343.6 lineto
60020.5 31310.2 lineto
59920.2 31310.2 lineto
stroke
newpath
60354.8 31778.3 moveto
60622.3 31778.3 lineto
stroke
newpath
60455.1 32012.3 moveto
60455.1 31410.5 lineto
60488.5 31343.6 lineto
60555.4 31310.2 lineto
60622.3 31310.2 lineto
stroke
newpath
61391.2 31778.3 moveto
61391.2 31076.2 lineto
stroke
newpath
61391.2 31744.8 moveto
61458.1 31778.3 lineto
61591.8 31778.3 lineto
61658.7 31744.8 lineto
61692.1 31711.4 lineto
61725.5 31644.5 lineto
61725.5 31443.9 lineto
61692.1 31377.1 lineto
61658.7 31343.6 lineto
61591.8 31310.2 lineto
61458.1 31310.2 lineto
61391.2 31343.6 lineto
stroke
newpath
62126.7 31310.2 moveto
62059.9 31343.6 lineto
62026.4 31410.5 lineto
62026.4 32012.3 lineto
stroke
newpath
62695.1 31310.2 moveto
62695.1 31678 lineto
62661.7 31744.8 lineto
62594.8 31778.3 lineto
62461.1 31778.3 lineto
62394.2 31744.8 lineto
stroke
newpath
62695.1 31343.6 moveto
62628.2 31310.2 lineto
62461.1 31310.2 lineto
62394.2 31343.6 lineto
62360.8 31410.5 lineto
62360.8 31477.4 lineto
62394.2 31544.2 lineto
62461.1 31577.7 lineto
62628.2 31577.7 lineto
62695.1 31611.1 lineto
stroke
newpath
62929.1 31778.3 moveto
63196.6 31778.3 lineto
stroke
newpath
63029.4 32012.3 moveto
63029.4 31410.5 lineto
63062.9 31343.6 lineto
63129.7 31310.2 lineto
63196.6 31310.2 lineto
stroke
newpath
63698.1 31343.6 moveto
63631.2 31310.2 lineto
63497.5 31310.2 lineto
63430.6 31343.6 lineto
63397.2 31410.5 lineto
63397.2 31678 lineto
63430.6 31744.8 lineto
63497.5 31778.3 lineto
63631.2 31778.3 lineto
63698.1 31744.8 lineto
63731.5 31678 lineto
63731.5 31611.1 lineto
63397.2 31544.2 lineto
stroke
newpath
64333.3 31310.2 moveto
64333.3 32012.3 lineto
stroke
newpath
64333.3 31343.6 moveto
64266.4 31310.2 lineto
64132.7 31310.2 lineto
64065.8 31343.6 lineto
64032.4 31377.1 lineto
63999 31443.9 lineto
63999 31644.5 lineto
64032.4 31711.4 lineto
64065.8 31744.8 lineto
64132.7 31778.3 lineto
64266.4 31778.3 lineto
64333.3 31744.8 lineto
stroke
newpath
64600.8 31042.7 moveto
64634.2 31076.2 lineto
64701.1 31176.5 lineto
64734.5 31243.3 lineto
64767.9 31343.6 lineto
64801.4 31510.8 lineto
64801.4 31644.5 lineto
64767.9 31811.7 lineto
64734.5 31912 lineto
64701.1 31978.9 lineto
64634.2 32079.2 lineto
64600.8 32112.6 lineto
stroke
showpage
grestore
%%EOF
