%TF.GenerationSoftware,KiCad,Pcbnew,(6.0.11-0)*%
%TF.CreationDate,2023-12-12T08:27:49-08:00*%
%TF.ProjectId,metarock,6d657461-726f-4636-9b2e-6b696361645f,rev?*%
%TF.SameCoordinates,Original*%
%TF.FileFunction,Profile,NP*%
%FSLAX46Y46*%
G04 Gerber Fmt 4.6, Leading zero omitted, Abs format (unit mm)*
G04 Created by KiCad (PCBNEW (6.0.11-0)) date 2023-12-12 08:27:49*
%MOMM*%
%LPD*%
G01*
G04 APERTURE LIST*
%TA.AperFunction,Profile*%
%ADD10C,0.100000*%
%TD*%
G04 APERTURE END LIST*
D10*
X150000000Y-20000000D02*
X50000000Y-20000000D01*
X50000000Y-150000000D02*
X150000000Y-150000000D01*
X150000000Y-150000000D02*
X150000000Y-20000000D01*
X50000000Y-20000000D02*
X50000000Y-150000000D01*
M02*
